\relax 
\bibstyle{phcpc}
\citation{LIGO_first_direct_GW,Abbott:2016nmj,Abbott:2017,Abbott:2017oio,GW170608,LIGOScientific:2018mvr}
\citation{RemMcC06}
\citation{Monitor:2017mdv,Abbott:2017wuw}
\citation{Pac86ApJ,EiLiPiSc,NaPaPi}
\citation{Ruiz:2016rai,Ruiz:2017inq}
\citation{Vignali:2002qs,Sun:2002yr,King:2014sja,Alexander:2013gxa,2012arXiv1205.3089R,2010arXiv1003.3041R}
\citation{2012ApJ...750...99T,2014ApJ...784L..23Y}
\citation{Tsokaros:2015fea,Tsokaros:2018zlf}
\citation{bhrss99}
\citation{bsbook10}
\citation{epls2012}
\citation{Etienne:2015cea}
\@writefile{toc}{\contentsline {section}{\numberline {1}\relax \fontsize  {14.4}{18}\selectfont  {Proposed Research}}{1}}
\newlabel{sor}{{1}{1}}
\citation{Paschalidis:2014}
\citation{Ruiz:2018wah}
\citation{Paschalidis:2014}
\citation{Ruiz:2018wah}
\@writefile{toc}{\contentsline {subsection}{\numberline {1.1}\relax \fontsize  {14.4}{18}\selectfont  {Black Hole--Neutron Star Binaries}}{2}}
\newlabel{bhns}{{1.1}{2}}
\citation{Ruiz:2016rai}
\citation{Ruiz:2017inq}
\citation{Ruiz:2018Oct}
\citation{Lorimer:2007qn,Thornton:2013iua}
\citation{Paschalidis:2018tsa}
\citation{Ruiz:2016rai}
\citation{Ruiz:2019}
\citation{Tsokaros:2018dqs}
\citation{Tichy:2012rp}
\@writefile{toc}{\contentsline {subsection}{\numberline {1.2}\relax \fontsize  {14.4}{18}\selectfont  {Neutron Stars Binaries}}{3}}
\newlabel{bns}{{1.2}{3}}
\citation{Paschalidis:2016agf}
\citation{Ruiz:2016rai}
\citation{Ruiz:2016rai}
\citation{Ruiz:2017inq}
\citation{Paschalidis:2018tsa}
\citation{Ruiz:2019}
\citation{LIGOScientific:2018mvr}
\citation{LIGOScientific:2018mvr}
\citation{FermiGBM_GW150914}
\citation{Verrecchia2017arXiv170600029V}
\citation{gpesp14,gprsep14}
\citation{FermiGBM_GW150914}
\citation{Khan017}
\@writefile{toc}{\contentsline {subsection}{\numberline {1.3}\relax \fontsize  {14.4}{18}\selectfont  {Binary Black Holes in Circumbinary Disks}}{4}}
\newlabel{bbh}{{1.3}{4}}
\citation{gpesp14}
\citation{gprsep14}
\citation{Tsokaros:2018zlf}
\citation{LIGOScientific:2018mvr}
\citation{Ryan:2015mda,2009ApJS..184..387D}
\citation{LIGOScientific:2018mvr}
\citation{Khan017}
\citation{Tsokaros:2018zlf}
\citation{Lousto:2014ida}
\citation{fls11}
\citation{Ryan:2015mda,2009ApJS..184..387D}
\citation{Sun:2018gcl}
\citation{Zink:2005rr}
\citation{Khan017,Sun:2017voo,Tsokaros:2017ueb,Ruiz:2017inq,Ruiz:2017due}
\citation{Paschalidis:2014}
\citation{Ruiz:2018Oct}
\citation{Paschalidis:2014}
\@writefile{toc}{\contentsline {subsection}{\numberline {1.4}Collapse of Supermassive Stars: Formation of massive BHBHs}{6}}
\newlabel{sec:newproj}{{1.4}{6}}
\@writefile{toc}{\contentsline {section}{\numberline {2}Justification for Requested Service Units}{6}}
\newlabel{usgae_plan}{{2}{6}}
\citation{Ruiz:2016rai}
\citation{Ruiz:2019}
\citation{Ruiz:2016rai,Ruiz:2019}
\citation{Ruiz:2019}
\citation{Khan017}
\citation{Ansorg2004PhRvD..70f4011A}
\citation{Khan017}
\citation{Baumgarte:1998te,sn95}
\citation{Alcubierre02a}
\citation{hll83}
\citation{vL77}
\citation{cw84}
\citation{toro}
\citation{eh88,toth00}
\citation{2009ApJS..184..387D}
\citation{ShapiroBook83}
\citation{bsbook10}
\@writefile{toc}{\contentsline {section}{\numberline {3}Computational Methodology and Algorithms }{9}}
\newlabel{numerical}{{3}{9}}
\@writefile{toc}{\contentsline {section}{\numberline {4}Local Computing Environment}{9}}
\newlabel{lce}{{4}{9}}
\@writefile{toc}{\contentsline {section}{\numberline {5}Other Supercomputer Support}{9}}
\newlabel{other_SU}{{5}{9}}
\@writefile{toc}{\contentsline {section}{\numberline {6}Project Team Qualifications and Supercomputing Experience}{9}}
\newlabel{exp}{{6}{9}}
\citation{Paschalidis:2014}
\citation{Ruiz:2018wah}
\citation{East:2015vix,Paschalidis:2015mla,East:2016zvv}
\citation{East:2016zvv}
\citation{Ruiz:2016rai}
\@writefile{toc}{\contentsline {section}{\numberline {1}Black Hole--Neutron Star Binary Mergers}{1}}
\newlabel{prog_bhe}{{1}{1}}
\@writefile{toc}{\contentsline {section}{\numberline {2}Binary Neutron Star Mergers }{1}}
\newlabel{prog_bns}{{2}{1}}
\citation{Ruiz:2017due}
\citation{Paschalidis:2018tsa}
\citation{Tsokaros:2018dqs}
\citation{Tichy:2012rp}
\citation{gpesp14}
\citation{gprsep14}
\citation{Khan017}
\citation{FermiGBM_GW150914}
\citation{Tsokaros:2018zlf}
\citation{Sun:2017voo}
\@writefile{toc}{\contentsline {section}{\numberline {3}Binary Black Hole Mergers in Gaseous Environments}{2}}
\newlabel{bbh_prog}{{3}{2}}
\citation{Sun:2018gcl}
\citation{Uryu:2016pto}
\citation{Tsokaros:2017ueb}
\citation{els10}
\citation{epls2012}
\citation{Giacomazzo:2013uua,2014arXiv1410.0013G}
\citation{PS13}
\citation{Paschalidis:2013jsaxo}
\citation{Ruiz:2014zta}
\@writefile{toc}{\contentsline {section}{\numberline {4}Stability and Collapse of Rotating Stars}{3}}
\newlabel{prog_sms}{{4}{3}}
\@writefile{toc}{\contentsline {section}{\numberline {5}Uniformly rotating triaxial neutron stars}{3}}
\@writefile{toc}{\contentsline {section}{\numberline {6}General Relativistic Magnetohydrodynamics Code Development}{3}}
\newlabel{prog_mhd}{{6}{3}}
\citation{Etienne2015}
\citation{web:einsteintoolkit}
\@writefile{toc}{\contentsline {section}{\numberline {7}Visualization}{4}}
\newlabel{prog_vis}{{7}{4}}
\citation{web:Carpet}
\citation{web:Carpet}
\citation{Khan017}
\@writefile{lof}{\contentsline {figure}{\numberline {1}{\ignorespaces  Performance of the GRMHD Illinois code on the TACC {\tt  Stampede2} cluster. System simulated is a single stable neutron star using 4th-order finite differencing and 4 ghost zones. Both the spacetime and fluid are evolved. {\bf  Left panel}: Scalability tests. Absolute performance is measured in iterations per second, keeping the number of spatial gridpoints per processor core fixed (weak scaling). We normalize this performance to that on 4 nodes (``relative performance''). The grid hierarchy consists of 8 nested refinement levels, using the Carpet code\nobreakspace  {}4.0 AMR\nobreakspace  {}\cite  {web:Carpet}. Our highest resolution production runs to date use between $\approx \nobreakspace  {}24$ to $48$ nodes, where we observe $\approx 90\%$ of perfect scaling (to within measurement error) scaling from 4 nodes with our code. Beyond our typical highest resolutions, we find $\approx $82\% of scaling at 64 nodes. Here we use $4$ MPI processes per node, , with 17 OpenMP threads per MPI process. {\bf  Right panel}: MPI-only vs.\nobreakspace  {}OpenMP/MPI hybrid code benchmark. Simulation is performed on $16$ nodes, varying the number of MPI processes per node. Relative performance is measured with respect to the 1-MPI-process-per-node, OpenMP-disabled case. For the OpenMP/MPI hybrid tests, we set the {\tt  OMP\_NUM\_THREADS} parameter (which specifies the number of threads per MPI process) to the integer $N/M$, or the closet one, where $N$ is the total number of processor cores per node, and $M$ is the total number of MPI processes per node. For MPI-only, we set {\tt  OMP\_NUM\_THREADS=1}. All these tests were performed in the {\tt  tacc\_affinity} environment.\relax }}{2}}
\providecommand*\caption@xref[2]{\@setref\relax\@undefined{#1}}
\newlabel{abescalingtest}{{1}{2}}
\bibdata{references}
\bibcite{LIGO_first_direct_GW}{{1}{}{{}}{{}}}
\bibcite{Abbott:2016nmj}{{2}{}{{}}{{}}}
\bibcite{Abbott:2017}{{3}{}{{}}{{}}}
\bibcite{Abbott:2017oio}{{4}{}{{}}{{}}}
\bibcite{GW170608}{{5}{}{{}}{{}}}
\bibcite{LIGOScientific:2018mvr}{{6}{}{{}}{{}}}
\bibcite{RemMcC06}{{7}{}{{}}{{}}}
\bibcite{Monitor:2017mdv}{{8}{}{{}}{{}}}
\bibcite{Abbott:2017wuw}{{9}{}{{}}{{}}}
\bibcite{Pac86ApJ}{{10}{}{{}}{{}}}
\bibcite{EiLiPiSc}{{11}{}{{}}{{}}}
\bibcite{NaPaPi}{{12}{}{{}}{{}}}
\bibcite{Ruiz:2016rai}{{13}{}{{}}{{}}}
\bibcite{Ruiz:2017inq}{{14}{}{{}}{{}}}
\bibcite{Vignali:2002qs}{{15}{}{{}}{{}}}
\bibcite{Sun:2002yr}{{16}{}{{}}{{}}}
\bibcite{King:2014sja}{{17}{}{{}}{{}}}
\bibcite{Alexander:2013gxa}{{18}{}{{}}{{}}}
\bibcite{2012arXiv1205.3089R}{{19}{}{{}}{{}}}
\bibcite{2010arXiv1003.3041R}{{20}{}{{}}{{}}}
\bibcite{2012ApJ...750...99T}{{21}{}{{}}{{}}}
\bibcite{2014ApJ...784L..23Y}{{22}{}{{}}{{}}}
\bibcite{Tsokaros:2015fea}{{23}{}{{}}{{}}}
\bibcite{Tsokaros:2018zlf}{{24}{}{{}}{{}}}
\bibcite{bhrss99}{{25}{}{{}}{{}}}
\bibcite{bsbook10}{{26}{}{{}}{{}}}
\bibcite{epls2012}{{27}{}{{}}{{}}}
\bibcite{Etienne:2015cea}{{28}{}{{}}{{}}}
\bibcite{Paschalidis:2014}{{29}{}{{}}{{}}}
\bibcite{Ruiz:2018wah}{{30}{}{{}}{{}}}
\bibcite{Ruiz:2018Oct}{{31}{}{{}}{{}}}
\bibcite{Lorimer:2007qn}{{32}{}{{}}{{}}}
\bibcite{Thornton:2013iua}{{33}{}{{}}{{}}}
\bibcite{Paschalidis:2018tsa}{{34}{}{{}}{{}}}
\bibcite{Ruiz:2019}{{35}{}{{}}{{}}}
\bibcite{Tsokaros:2018dqs}{{36}{}{{}}{{}}}
\bibcite{Tichy:2012rp}{{37}{}{{}}{{}}}
\bibcite{Paschalidis:2016agf}{{38}{}{{}}{{}}}
\bibcite{FermiGBM_GW150914}{{39}{}{{}}{{}}}
\bibcite{Verrecchia2017arXiv170600029V}{{40}{}{{}}{{}}}
\bibcite{gpesp14}{{41}{}{{}}{{}}}
\bibcite{gprsep14}{{42}{}{{}}{{}}}
\bibcite{Khan017}{{43}{}{{}}{{}}}
\bibcite{Ryan:2015mda}{{44}{}{{}}{{}}}
\bibcite{2009ApJS..184..387D}{{45}{}{{}}{{}}}
\bibcite{Lousto:2014ida}{{46}{}{{}}{{}}}
\bibcite{fls11}{{47}{}{{}}{{}}}
\bibcite{Sun:2018gcl}{{48}{}{{}}{{}}}
\bibcite{Zink:2005rr}{{49}{}{{}}{{}}}
\bibcite{Sun:2017voo}{{50}{}{{}}{{}}}
\bibcite{Tsokaros:2017ueb}{{51}{}{{}}{{}}}
\bibcite{Ruiz:2017due}{{52}{}{{}}{{}}}
\bibcite{Ansorg2004PhRvD..70f4011A}{{53}{}{{}}{{}}}
\bibcite{Baumgarte:1998te}{{54}{}{{}}{{}}}
\bibcite{sn95}{{55}{}{{}}{{}}}
\bibcite{Alcubierre02a}{{56}{}{{}}{{}}}
\bibcite{hll83}{{57}{}{{}}{{}}}
\bibcite{vL77}{{58}{}{{}}{{}}}
\bibcite{cw84}{{59}{}{{}}{{}}}
\bibcite{toro}{{60}{}{{}}{{}}}
\bibcite{eh88}{{61}{}{{}}{{}}}
\bibcite{toth00}{{62}{}{{}}{{}}}
\bibcite{ShapiroBook83}{{63}{}{{}}{{}}}
\bibcite{East:2015vix}{{64}{}{{}}{{}}}
\bibcite{Paschalidis:2015mla}{{65}{}{{}}{{}}}
\bibcite{East:2016zvv}{{66}{}{{}}{{}}}
\bibcite{Uryu:2016pto}{{67}{}{{}}{{}}}
\bibcite{els10}{{68}{}{{}}{{}}}
\bibcite{Giacomazzo:2013uua}{{69}{}{{}}{{}}}
\bibcite{2014arXiv1410.0013G}{{70}{}{{}}{{}}}
\bibcite{PS13}{{71}{}{{}}{{}}}
\bibcite{Paschalidis:2013jsaxo}{{72}{}{{}}{{}}}
\bibcite{Ruiz:2014zta}{{73}{}{{}}{{}}}
\bibcite{Etienne2015}{{74}{}{{}}{{}}}
\bibcite{web:einsteintoolkit}{{75}{}{{}}{{}}}
\bibcite{web:Carpet}{{76}{}{{}}{{}}}
\providecommand\NAT@force@numbers{}\NAT@force@numbers
