%!PS-Adobe-2.0 EPSF-2.0
%%Creator: SM
%%BoundingBox: 18 144 592 718
%%DocumentFonts: Helvetica
%%EndComments
 20 dict begin
72 300 div dup scale
1 setlinejoin 0 setlinecap
/Helvetica findfont 55 scalefont setfont 
/B {CS newpath moveto} def
/F {moveto 0 setlinecap} def
/C {CS M 1 1 3 {pop 3 1 roll 255 div} for SET_COLOUR} def
/CS {currentpoint stroke} def
/CF {currentpoint eofill} def
/L {lineto} def /l {rlineto} def /M {moveto} def /m {rmoveto} def
/P {currentpoint 0 1 rlineto stroke moveto} def
/T {currentlinecap exch 1 setlinecap show setlinecap} def
errordict /nocurrentpoint {pop 0 0 M currentpoint} put
/SET_COLOUR statusdict begin /processcolors where
  {pop processcolors 1 gt} {false} ifelse
  {(setrgbcolor)} {(pop pop pop)} ifelse cvx end def
 80 600 translate
gsave
CS [] 0 setdash M
CS M 1 100 mul 72 div dup setlinewidth
/P [ /currentpoint cvx 0 5 -1 roll .05 add dup -2 div 0 exch /rmoveto cvx /rlineto cvx /stroke cvx /moveto cvx ] cvx def
 0 0 0 C
741 2068 M CS [] 0 setdash M
741 2042 M 29 59 m -9 -2 l
-6 -6 l
-2 -6 l
-3 -11 l
0 -8 l
3 -12 l
2 -5 l
6 -6 l
9 -3 l
5 0 l
9 3 l
5 6 l
3 5 l
3 12 l
0 8 l
-3 11 l
-3 6 l
-5 6 l
-9 2 l
-5 0 l
-6 -2 l
-6 -6 l
-3 -6 l
-2 -11 l
0 -8 l
2 -12 l
3 -5 l
6 -6 l
6 -3 l
5 0 m 6 3 l
5 6 l
3 5 l
3 12 l
0 8 l
-3 11 l
-3 6 l
-5 6 l
-6 2 l
-1 0 m -9 -2 l
-5 -6 l
-3 -6 l
-3 -11 l
0 -8 l
3 -12 l
3 -5 l
5 -6 l
9 -3 l
5 0 l
9 3 l
5 6 l
3 5 l
3 12 l
0 8 l
-3 11 l
-3 6 l
-5 6 l
-9 2 l
-5 0 l
-6 -2 l
-6 -6 l
-2 -6 l
-3 -11 l
0 -8 l
3 -12 l
2 -5 l
6 -6 l
6 -3 l
5 0 m 6 3 l
6 6 l
2 5 l
3 12 l
0 8 l
-3 11 l
-2 6 l
-6 6 l
-6 2 l
45 -19 m 0 -59 l
3 59 m 0 -59 l
0 50 m 6 6 l
5 3 l
6 0 l
8 -3 l
6 -6 l
3 -8 l
0 -6 l
-3 -8 l
-6 -6 l
-8 -3 l
-6 0 l
-5 3 l
-6 6 l
17 31 m 5 -3 l
6 -6 l
3 -8 l
0 -6 l
-3 -8 l
-6 -6 l
-5 -3 l
-28 40 m 11 0 l
-11 -59 m 19 0 l
-7 59 m 0 -59 l
3 59 m 0 -59 l
0 50 m 6 6 l
5 3 l
6 0 l
8 -3 l
6 -6 l
3 -8 l
0 -6 l
-3 -8 l
-6 -6 l
-8 -3 l
-6 0 l
-5 3 l
-6 6 l
17 31 m 6 -3 l
5 -6 l
3 -8 l
0 -6 l
-3 -8 l
-5 -6 l
-6 -3 l
-28 40 m 11 0 l
-11 -59 m 20 0 l
47 42 m 34 0 l
0 6 l
-3 5 l
-3 3 l
-5 3 l
-9 0 l
-8 -3 l
-6 -6 l
-2 -8 l
0 -6 l
2 -8 l
6 -6 l
8 -3 l
6 0 l
8 3 l
6 6 l
-3 14 m 0 8 l
-3 6 l
-14 3 m -5 -3 l
-6 -6 l
-3 -8 l
0 -6 l
3 -8 l
6 -6 l
5 -3 l
-9 23 m 33 0 l
0 6 l
-3 5 l
-2 3 l
-6 3 l
-8 0 l
-9 -3 l
-5 -6 l
-3 -8 l
0 -6 l
3 -8 l
5 -6 l
9 -3 l
5 0 l
9 3 l
5 6 l
-3 14 m 0 8 l
-2 6 l
-14 3 m -6 -3 l
-6 -6 l
-2 -8 l
0 -6 l
2 -8 l
6 -6 l
6 -3 l
44 40 m 0 -40 l
3 40 m 0 -40 l
0 31 m 6 6 l
8 3 l
6 0 l
8 -3 l
3 -6 l
0 -31 l
-11 40 m 6 -3 l
2 -6 l
0 -31 l
-39 40 m 11 0 l
-11 -40 m 20 0 l
11 0 m 20 0 l
-38 40 m 0 -40 l
2 40 m 0 -40 l
0 31 m 6 6 l
8 3 l
6 0 l
9 -3 l
2 -6 l
0 -31 l
-11 40 m 6 -3 l
3 -6 l
0 -31 l
-40 40 m 11 0 l
-11 -40 m 20 0 l
11 0 m 20 0 l
22 59 m 0 -59 l
3 59 m 17 -50 l
-20 50 m 20 -59 l
19 59 m -19 -59 l
19 59 m 0 -59 l
3 59 m 0 -59 l
-50 59 m 11 0 l
36 0 m 12 0 l
-59 -59 m 17 0 l
22 0 m 20 0 l
-47 59 m 0 -59 l
3 59 m 17 -50 l
-20 50 m 20 -59 l
20 59 m -20 -59 l
20 59 m 0 -59 l
2 59 m 0 -59 l
-50 59 m 11 0 l
37 0 m 11 0 l
-59 -59 m 17 0 l
22 0 m 20 0 l
22 59 m 0 -59 l
3 59 m 0 -59 l
-11 59 m 34 0 l
8 -2 l
3 -3 l
3 -6 l
0 -8 l
-3 -6 l
-3 -3 l
-8 -2 l
-23 0 l
23 30 m 5 -2 l
3 -3 l
3 -6 l
0 -8 l
-3 -6 l
-3 -3 l
-5 -2 l
-34 -29 m 20 0 l
-8 59 m 0 -59 l
3 59 m 0 -59 l
-11 59 m 34 0 l
8 -2 l
3 -3 l
3 -6 l
0 -8 l
-3 -6 l
-3 -3 l
-8 -2 l
-23 0 l
23 30 m 5 -2 l
3 -3 l
3 -6 l
0 -8 l
-3 -6 l
-3 -3 l
-5 -2 l
-34 -29 m 20 0 l
95 71 m -50 -90 l
54 90 m -50 -90 l
73 78 m 0 -59 l
3 59 m 16 -50 l
-19 50 m 19 -59 l
20 59 m -20 -59 l
20 59 m 0 -59 l
3 59 m 0 -59 l
-51 59 m 12 0 l
36 0 m 11 0 l
-59 -59 m 17 0 l
23 0 m 19 0 l
-46 59 m 0 -59 l
3 59 m 17 -50 l
-20 50 m 20 -59 l
19 59 m -19 -59 l
19 59 m 0 -59 l
3 59 m 0 -59 l
-51 59 m 12 0 l
36 0 m 11 0 l
-59 -59 m 17 0 l
23 0 m 19 0 l
23 59 m 0 -59 l
3 59 m 0 -59 l
-11 59 m 33 0 l
9 -2 l
2 -3 l
3 -6 l
0 -8 l
-3 -6 l
-2 -3 l
-9 -2 l
-22 0 l
22 30 m 6 -2 l
3 -3 l
2 -6 l
0 -8 l
-2 -6 l
-3 -3 l
-6 -2 l
CS M
-33 -29 m 19 0 l
-7 59 m 0 -59 l
3 59 m 0 -59 l
-11 59 m 33 0 l
9 -2 l
3 -3 l
2 -6 l
0 -8 l
-2 -6 l
-3 -3 l
-9 -2 l
-22 0 l
22 30 m 6 -2 l
3 -3 l
3 -6 l
0 -8 l
-3 -6 l
-3 -3 l
-6 -2 l
-33 -29 m 19 0 l
54 59 m 0 -59 l
2 59 m 0 -59 l
-11 59 m 20 0 l
-20 -59 m 20 0 l
-7 59 m 0 -59 l
3 59 m 0 -59 l
-12 59 m 20 0 l
-20 -59 m 20 0 l
-33 0 m CS [] 0 setdash M
741 880 M CS [] 0 setdash M
741 861 M 14 59 m 0 -59 l
3 59 m 17 -51 l
-20 51 m 20 -59 l
20 59 m -20 -59 l
20 59 m 0 -59 l
3 59 m 0 -59 l
-51 59 m 11 0 l
37 0 m 11 0 l
-59 -59 m 17 0 l
22 0 m 20 0 l
-46 59 m 0 -59 l
2 59 m 17 -51 l
-19 51 m 19 -59 l
20 59 m -20 -59 l
20 59 m 0 -59 l
3 59 m 0 -59 l
-51 59 m 11 0 l
37 0 m 11 0 l
-59 -59 m 17 0 l
23 0 m 19 0 l
23 59 m 0 -59 l
2 59 m 0 -59 l
-11 59 m 34 0 l
8 -3 l
3 -3 l
3 -6 l
0 -8 l
-3 -6 l
-3 -2 l
-8 -3 l
-23 0 l
23 31 m 6 -3 l
2 -3 l
3 -6 l
0 -8 l
-3 -6 l
-2 -2 l
-6 -3 l
-34 -28 m 20 0 l
-7 59 m 0 -59 l
3 59 m 0 -59 l
-12 59 m 34 0 l
9 -3 l
2 -3 l
3 -6 l
0 -8 l
-3 -6 l
-2 -2 l
-9 -3 l
-22 0 l
22 31 m 6 -3 l
3 -3 l
2 -6 l
0 -8 l
-2 -6 l
-3 -2 l
-6 -3 l
-34 -28 m 20 0 l
53 59 m 0 -59 l
3 59 m 0 -59 l
-11 59 m 20 0 l
-20 -59 m 20 0 l
-7 59 m 0 -59 l
2 59 m 0 -59 l
-11 59 m 20 0 l
-20 -59 m 20 0 l
19 25 m 51 0 l
-46 0 m 50 0 l
39 14 m -8 -3 l
-6 -5 l
-2 -9 l
0 -5 l
2 -9 l
6 -5 l
8 -3 l
6 0 l
8 3 l
6 5 l
3 9 l
0 5 l
-3 9 l
-6 5 l
-8 3 l
-6 0 l
-5 -3 l
-6 -5 l
-3 -9 l
0 -5 l
3 -9 l
6 -5 l
5 -3 l
6 0 m 6 3 l
5 5 l
3 9 l
0 5 l
-3 9 l
-5 5 l
-6 3 l
-1 0 m -9 -3 l
-5 -5 l
-3 -9 l
0 -5 l
3 -9 l
5 -5 l
9 -3 l
5 0 l
9 3 l
5 5 l
3 9 l
0 5 l
-3 9 l
-5 5 l
-9 3 l
-5 0 l
-6 -3 l
-6 -5 l
-2 -9 l
0 -5 l
2 -9 l
6 -5 l
6 -3 l
5 0 m 6 3 l
5 5 l
3 9 l
0 5 l
-3 9 l
-5 5 l
-6 3 l
42 0 m 0 -39 l
3 39 m 0 -39 l
0 31 m 6 5 l
8 3 l
6 0 l
8 -3 l
3 -5 l
0 -31 l
-11 39 m 5 -3 l
3 -5 l
0 -31 l
-39 39 m 11 0 l
-11 -39 m 19 0 l
12 0 m 19 0 l
-38 39 m 0 -39 l
3 39 m 0 -39 l
0 31 m 6 5 l
8 3 l
6 0 l
8 -3 l
3 -5 l
0 -31 l
-11 39 m 5 -3 l
3 -5 l
0 -31 l
-39 39 m 11 0 l
-11 -39 m 20 0 l
11 0 m 20 0 l
22 59 m 0 -59 l
3 59 m 0 -59 l
-11 59 m 11 0 l
-11 -59 m 19 0 l
-7 59 m 0 -59 l
3 59 m 0 -59 l
-11 59 m 11 0 l
-11 -59 m 19 0 l
20 39 m 17 -39 l
-14 39 m 14 -34 l
17 34 m -17 -39 l
-6 -12 l
-5 -5 l
-6 -3 l
-3 0 l
-3 3 l
3 3 l
3 -3 l
-6 56 m 17 0 l
11 0 m 17 0 l
-35 0 m 17 -39 l
-14 39 m 14 -34 l
17 34 m -17 -39 l
-6 -12 l
-5 -5 l
-6 -3 l
-3 0 l
-2 3 l
2 3 l
3 -3 l
-5 56 m 16 0 l
12 0 m 16 0 l
-27 -39 m CS [] 0 setdash M
CS M 2 100 mul 72 div dup setlinewidth
/P [ /currentpoint cvx 0 5 -1 roll .05 add dup -2 div 0 exch /rmoveto cvx /rlineto cvx /stroke cvx /moveto cvx ] cvx def
CS [] 0 setdash M
438 328 M 1823 0 l
0 1933 l
438 2261 L
438 328 L
1823 0 l
438 328 M 1823 0 l
438 328 M 0 29 l
121 -29 m 0 29 l
122 -29 m 0 29 l
121 -29 m 0 29 l
122 -29 m 0 58 l
-29 -165 m 14 58 m -6 -28 l
6 6 l
8 3 l
8 0 l
8 -3 l
6 -6 l
3 -8 l
0 -5 l
-3 -8 l
-6 -6 l
-8 -3 l
-8 0 l
-8 3 l
-3 3 l
-3 5 l
0 3 l
3 3 l
3 -3 l
-3 -3 l
19 28 m 6 -3 l
5 -6 l
3 -8 l
0 -5 l
-3 -8 l
-5 -6 l
-6 -3 l
-16 58 m 27 0 l
-27 -3 m 14 0 l
13 3 l
-23 0 m -6 -28 l
6 6 l
8 3 l
8 0 l
8 -3 l
6 -6 l
3 -8 l
0 -5 l
-3 -8 l
-6 -6 l
-8 -3 l
-8 0 l
-8 3 l
-3 3 l
-3 5 l
0 3 l
3 3 l
3 -3 l
-3 -3 l
19 28 m 6 -3 l
5 -6 l
3 -8 l
0 -5 l
-3 -8 l
-5 -6 l
-6 -3 l
-16 58 m 27 0 l
-27 -3 m 14 0 l
13 3 l
105 49 m 0 29 l
122 -29 m 0 29 l
122 -29 m 0 29 l
121 -29 m 0 29 l
122 -29 m 0 58 l
-58 -165 m 17 47 m 5 2 l
8 9 l
0 -58 l
-2 55 m 0 -55 l
-11 0 m 24 0 l
-20 47 m 5 2 l
8 9 l
0 -58 l
-2 55 m 0 -55 l
-11 0 m 24 0 l
CS M
41 58 m -8 -3 l
-5 -8 l
-3 -14 l
0 -8 l
3 -14 l
5 -8 l
8 -3 l
6 0 l
8 3 l
5 8 l
3 14 l
0 8 l
-3 14 l
-5 8 l
-8 3 l
-6 0 l
-5 -3 l
-3 -3 l
-3 -5 l
-2 -14 l
0 -8 l
2 -14 l
3 -5 l
3 -3 l
5 -3 l
6 0 m 5 3 l
3 3 l
3 5 l
2 14 l
0 8 l
-2 14 l
-3 5 l
-3 3 l
-5 3 l
-2 0 m -8 -3 l
-5 -8 l
-3 -14 l
0 -8 l
3 -14 l
5 -8 l
8 -3 l
6 0 l
8 3 l
5 8 l
3 14 l
0 8 l
-3 14 l
-5 8 l
-8 3 l
-6 0 l
-5 -3 l
-3 -3 l
-3 -5 l
-2 -14 l
0 -8 l
2 -14 l
3 -5 l
3 -3 l
5 -3 l
6 0 m 5 3 l
3 3 l
3 5 l
2 14 l
0 8 l
-2 14 l
-3 5 l
-3 3 l
-5 3 l
83 49 m 0 29 l
122 -29 m 0 29 l
121 -29 m 0 29 l
122 -29 m 0 29 l
121 -29 m 0 58 l
-57 -165 m 17 47 m 5 2 l
8 9 l
0 -58 l
-3 55 m 0 -55 l
-10 0 m 24 0 l
-20 47 m 5 2 l
8 9 l
0 -58 l
-2 55 m 0 -55 l
-11 0 m 24 0 l
30 58 m -5 -28 l
5 6 l
8 3 l
9 0 l
8 -3 l
5 -6 l
3 -8 l
0 -5 l
-3 -8 l
-5 -6 l
-8 -3 l
-9 0 l
-8 3 l
-3 3 l
-2 5 l
0 3 l
2 3 l
3 -3 l
-3 -3 l
20 28 m 5 -3 l
5 -6 l
3 -8 l
0 -5 l
-3 -8 l
-5 -6 l
-5 -3 l
-17 58 m 27 0 l
-27 -3 m 14 0 l
13 3 l
-23 0 m -5 -28 l
5 6 l
8 3 l
9 0 l
8 -3 l
5 -6 l
3 -8 l
0 -5 l
-3 -8 l
-5 -6 l
-8 -3 l
-9 0 l
-8 3 l
-3 3 l
-2 5 l
0 3 l
2 3 l
3 -3 l
-3 -3 l
20 28 m 5 -3 l
6 -6 l
2 -8 l
0 -5 l
-2 -8 l
-6 -6 l
-5 -3 l
-17 58 m 28 0 l
-28 -3 m 14 0 l
14 3 l
72 49 m 0 29 l
438 2261 M 1823 0 l
438 2261 M 0 -29 l
121 29 m 0 -29 l
122 29 m 0 -29 l
121 29 m 0 -29 l
122 29 m 0 -58 l
121 58 m 0 -29 l
122 29 m 0 -29 l
122 29 m 0 -29 l
121 29 m 0 -29 l
122 29 m 0 -58 l
121 58 m 0 -29 l
122 29 m 0 -29 l
121 29 m 0 -29 l
122 29 m 0 -29 l
121 29 m 0 -58 l
122 58 m 0 -29 l
438 328 M 0 1933 l
438 328 M 58 0 l
-165 -28 m 24 57 m -8 -3 l
-5 -8 l
-3 -14 l
0 -8 l
3 -14 l
5 -8 l
8 -2 l
6 0 l
8 2 l
5 8 l
3 14 l
0 8 l
-3 14 l
-5 8 l
-8 3 l
-6 0 l
-5 -3 l
-3 -3 l
-3 -5 l
-2 -14 l
0 -8 l
2 -14 l
3 -5 l
3 -3 l
5 -2 l
6 0 m 5 2 l
3 3 l
3 5 l
2 14 l
0 8 l
-2 14 l
-3 5 l
-3 3 l
-5 3 l
-2 0 m -8 -3 l
-5 -8 l
-3 -14 l
0 -8 l
3 -14 l
5 -8 l
8 -2 l
6 0 l
8 2 l
5 8 l
3 14 l
0 8 l
-3 14 l
-5 8 l
-8 3 l
-6 0 l
-5 -3 l
-3 -3 l
-3 -5 l
-2 -14 l
0 -8 l
2 -14 l
3 -5 l
3 -3 l
5 -2 l
6 0 m 5 2 l
3 3 l
3 5 l
2 14 l
0 8 l
-2 14 l
-3 5 l
-3 3 l
-5 3 l
73 109 m 29 0 l
-29 138 m 29 0 l
-29 138 m 29 0 l
-29 138 m 58 0 l
-165 -28 m 11 46 m 2 -3 l
-2 -2 l
-3 2 l
0 3 l
3 6 l
2 2 l
9 3 l
10 0 l
9 -3 l
2 -2 l
3 -6 l
0 -5 l
-3 -6 l
-8 -5 l
-13 -6 l
-6 -2 l
-5 -6 l
-3 -8 l
0 -8 l
24 57 m 6 -3 l
3 -2 l
2 -6 l
0 -5 l
-2 -6 l
-9 -5 l
-10 -6 l
-14 -19 m 3 3 l
5 0 l
14 -5 l
8 0 l
5 2 l
3 3 l
-30 0 m 14 -8 l
11 0 l
2 3 l
3 5 l
0 5 l
-31 33 m 2 -3 l
-2 -2 l
-3 2 l
0 3 l
3 6 l
2 2 l
9 3 l
11 0 l
8 -3 l
2 -2 l
3 -6 l
0 -5 l
-3 -6 l
-8 -5 l
-13 -6 l
-6 -2 l
-5 -6 l
-3 -8 l
0 -8 l
25 57 m 5 -3 l
3 -2 l
2 -6 l
0 -5 l
-2 -6 l
-8 -5 l
-11 -6 l
-14 -19 m 3 3 l
5 0 l
14 -5 l
8 0 l
CS M
5 2 l
3 3 l
-30 0 m 14 -8 l
11 0 l
2 3 l
3 5 l
0 5 l
57 153 m 29 0 l
-29 139 m 29 0 l
-29 138 m 29 0 l
-29 138 m 58 0 l
-165 -29 m 32 52 m 0 -52 l
3 57 m 0 -57 l
0 57 m -30 -41 l
44 0 l
-25 -16 m 19 0 l
-6 52 m 0 -52 l
2 57 m 0 -57 l
0 57 m -30 -41 l
44 0 l
-25 -16 m 19 0 l
60 167 m 29 0 l
-29 138 m 29 0 l
-29 138 m 29 0 l
-29 138 m 58 0 l
-165 -29 m 41 49 m -3 -2 l
3 -3 l
2 3 l
0 2 l
-2 6 l
-6 3 l
-8 0 l
-8 -3 l
-6 -6 l
-2 -5 l
-3 -11 l
0 -16 l
3 -9 l
5 -5 l
8 -3 l
6 0 l
8 3 l
5 5 l
3 9 l
0 2 l
-3 9 l
-5 5 l
-8 3 l
-3 0 l
-8 -3 l
-6 -5 l
-2 -9 l
16 39 m -5 -3 l
-6 -6 l
-3 -5 l
-2 -11 l
0 -16 l
2 -9 l
6 -5 l
5 -3 l
6 0 m 5 3 l
6 5 l
2 9 l
0 2 l
-2 9 l
-6 5 l
-5 3 l
15 13 m -3 -2 l
3 -3 l
2 3 l
0 2 l
-2 6 l
-6 3 l
-8 0 l
-8 -3 l
-6 -6 l
-2 -5 l
-3 -11 l
0 -16 l
3 -9 l
5 -5 l
8 -3 l
6 0 l
8 3 l
5 5 l
3 9 l
0 2 l
-3 9 l
-5 5 l
-8 3 l
-3 0 l
-8 -3 l
-6 -5 l
-2 -9 l
16 39 m -5 -3 l
-6 -6 l
-3 -5 l
-2 -11 l
0 -16 l
2 -9 l
6 -5 l
5 -3 l
6 0 m 5 3 l
6 5 l
2 9 l
0 2 l
-2 9 l
-6 5 l
-5 3 l
73 131 m 29 0 l
-29 138 m 29 0 l
2261 328 M 0 1933 l
2261 328 M -58 0 l
58 138 m -29 0 l
29 138 m -29 0 l
29 138 m -29 0 l
29 138 m -58 0 l
58 138 m -29 0 l
29 139 m -29 0 l
29 138 m -29 0 l
29 138 m -58 0 l
58 138 m -29 0 l
29 138 m -29 0 l
29 138 m -29 0 l
29 138 m -58 0 l
58 138 m -29 0 l
29 138 m -29 0 l
CS [] 0 setdash M
CS [] 0 setdash M
651 96 M 16 67 m 0 -67 l
4 67 m 19 -58 l
-23 58 m 23 -67 l
22 67 m -22 -67 l
22 67 m 0 -67 l
4 67 m 0 -67 l
-58 67 m 13 0 l
41 0 m 13 0 l
-67 -67 m 19 0 l
26 0 m 22 0 l
-53 67 m 0 -67 l
3 67 m 20 -58 l
-23 58 m 23 -67 l
22 67 m -22 -67 l
22 67 m 0 -67 l
3 67 m 0 -67 l
-57 67 m 12 0 l
42 0 m 13 0 l
-67 -67 m 19 0 l
25 0 m 23 0 l
26 67 m 0 -67 l
3 67 m 0 -67 l
-13 67 m 39 0 l
9 -3 l
3 -3 l
4 -7 l
0 -9 l
-4 -7 l
-3 -3 l
-9 -3 l
-26 0 l
26 35 m 6 -3 l
3 -3 l
3 -7 l
0 -9 l
-3 -7 l
-3 -3 l
-6 -3 l
-39 -32 m 22 0 l
-8 67 m 0 -67 l
4 67 m 0 -67 l
-13 67 m 38 0 l
10 -3 l
3 -3 l
3 -7 l
0 -9 l
-3 -7 l
-3 -3 l
-10 -3 l
-25 0 l
25 35 m 7 -3 l
3 -3 l
3 -7 l
0 -9 l
-3 -7 l
-3 -3 l
-7 -3 l
-38 -32 m 22 0 l
61 67 m 0 -67 l
3 67 m 0 -67 l
-12 67 m 22 0 l
-22 -67 m 22 0 l
-8 67 m 0 -67 l
3 67 m 0 -67 l
-13 67 m 23 0 l
-23 -67 m 23 0 l
85 67 m 0 -67 l
3 67 m 0 -67 l
-13 67 m 39 0 l
9 -3 l
4 -3 l
3 -7 l
0 -9 l
-3 -7 l
-4 -3 l
-9 -3 l
-26 0 l
26 35 m 6 -3 l
3 -3 l
4 -7 l
0 -9 l
-4 -7 l
-3 -3 l
-6 -3 l
-39 -32 m 23 0 l
-8 67 m 0 -67 l
3 67 m 0 -67 l
-13 67 m 39 0 l
9 -3 l
3 -3 l
4 -7 l
0 -9 l
-4 -7 l
-3 -3 l
-9 -3 l
-26 0 l
26 35 m 6 -3 l
3 -3 l
3 -7 l
0 -9 l
-3 -7 l
-3 -3 l
-6 -3 l
-39 -32 m 23 0 l
61 45 m 0 -45 l
3 45 m 0 -45 l
0 25 m 3 10 l
6 6 l
7 4 l
9 0 l
4 -4 l
0 -3 l
-4 -3 l
-3 3 l
3 3 l
-38 4 m 13 0 l
-13 -45 m 22 0 l
-8 45 m 0 -45 l
4 45 m 0 -45 l
0 25 m 3 10 l
6 6 l
7 4 l
9 0 l
3 -4 l
0 -3 l
-3 -3 l
-3 3 l
3 3 l
-38 4 m 13 0 l
-13 -45 m 22 0 l
58 45 m -10 -4 l
-6 -6 l
-3 -10 l
0 -6 l
3 -10 l
6 -6 l
10 -3 l
6 0 l
10 3 l
6 6 l
4 10 l
0 6 l
-4 10 l
-6 6 l
-10 4 l
-6 0 l
-6 -4 l
-7 -6 l
-3 -10 l
0 -6 l
3 -10 l
7 -6 l
6 -3 l
6 0 m 7 3 l
6 6 l
3 10 l
0 6 l
-3 10 l
-6 6 l
-7 4 l
-1 0 m -10 -4 l
-6 -6 l
-3 -10 l
0 -6 l
3 -10 l
6 -6 l
10 -3 l
6 0 l
10 3 l
6 6 l
3 10 l
0 6 l
-3 10 l
CS M
-6 6 l
-10 4 l
-6 0 l
-7 -4 l
-6 -6 l
-3 -10 l
0 -6 l
3 -10 l
6 -6 l
7 -3 l
6 0 m 7 3 l
6 6 l
3 10 l
0 6 l
-3 10 l
-6 6 l
-7 4 l
80 -10 m -3 -3 l
3 -3 l
4 3 l
0 3 l
-7 6 l
-6 4 l
-10 0 l
-9 -4 l
-7 -6 l
-3 -10 l
0 -6 l
3 -10 l
7 -6 l
9 -3 l
7 0 l
9 3 l
7 6 l
-23 36 m -6 -4 l
-7 -6 l
-3 -10 l
0 -6 l
3 -10 l
7 -6 l
6 -3 l
24 35 m -3 -3 l
3 -3 l
3 3 l
0 3 l
-6 6 l
-6 4 l
-10 0 l
-10 -4 l
-6 -6 l
-3 -10 l
0 -6 l
3 -10 l
6 -6 l
10 -3 l
6 0 l
10 3 l
6 6 l
-22 36 m -6 -4 l
-7 -6 l
-3 -10 l
0 -6 l
3 -10 l
7 -6 l
6 -3 l
48 25 m 39 0 l
0 7 l
-4 6 l
-3 3 l
-6 4 l
-10 0 l
-9 -4 l
-7 -6 l
-3 -10 l
0 -6 l
3 -10 l
7 -6 l
9 -3 l
7 0 l
9 3 l
7 6 l
-4 16 m 0 10 l
-3 6 l
-16 4 m -6 -4 l
-7 -6 l
-3 -10 l
0 -6 l
3 -10 l
7 -6 l
6 -3 l
-11 25 m 38 0 l
0 7 l
-3 6 l
-3 3 l
-6 4 l
-10 0 l
-10 -4 l
-6 -6 l
-3 -10 l
0 -6 l
3 -10 l
6 -6 l
10 -3 l
6 0 l
10 3 l
6 6 l
-3 16 m 0 10 l
-3 6 l
-16 4 m -6 -4 l
-7 -6 l
-3 -10 l
0 -6 l
3 -10 l
7 -6 l
6 -3 l
77 38 m 3 7 l
0 -13 l
-3 6 l
-3 3 l
-7 4 l
-12 0 l
-7 -4 l
-3 -3 l
0 -6 l
3 -3 l
7 -4 l
16 -6 l
6 -3 l
3 -4 l
-35 23 m 3 -3 l
7 -3 l
16 -7 l
6 -3 l
3 -3 l
0 -10 l
-3 -3 l
-6 -3 l
-13 0 l
-7 3 l
-3 3 l
-3 6 l
0 -12 l
3 6 l
34 32 m 3 7 l
0 -13 l
-3 6 l
-3 3 l
-7 4 l
-13 0 l
-6 -4 l
-3 -3 l
0 -6 l
3 -3 l
6 -4 l
16 -6 l
7 -3 l
3 -4 l
-35 23 m 3 -3 l
6 -3 l
16 -7 l
7 -3 l
3 -3 l
0 -10 l
-3 -3 l
-7 -3 l
-12 0 l
-7 3 l
-3 3 l
-3 6 l
0 -12 l
3 6 l
87 32 m 3 7 l
0 -13 l
-3 6 l
-4 3 l
-6 4 l
-13 0 l
-6 -4 l
-3 -3 l
0 -6 l
3 -3 l
6 -4 l
16 -6 l
7 -3 l
3 -4 l
-35 23 m 3 -3 l
6 -3 l
16 -7 l
7 -3 l
3 -3 l
0 -10 l
-3 -3 l
-7 -3 l
-13 0 l
-6 3 l
-3 3 l
-3 6 l
0 -12 l
3 6 l
33 32 m 4 7 l
0 -13 l
-4 6 l
-3 3 l
-6 4 l
-13 0 l
-6 -4 l
-4 -3 l
0 -6 l
4 -3 l
6 -4 l
16 -6 l
6 -3 l
4 -4 l
-36 23 m 4 -3 l
6 -3 l
16 -7 l
6 -3 l
4 -3 l
0 -10 l
-4 -3 l
-6 -3 l
-13 0 l
-6 3 l
-3 3 l
-4 6 l
0 -12 l
4 6 l
57 19 m 39 0 l
0 7 l
-3 6 l
-4 3 l
-6 4 l
-10 0 l
-9 -4 l
-7 -6 l
-3 -10 l
0 -6 l
3 -10 l
7 -6 l
9 -3 l
7 0 l
9 3 l
7 6 l
-3 16 m 0 10 l
-4 6 l
-16 4 m -6 -4 l
-6 -6 l
-4 -10 l
0 -6 l
4 -10 l
6 -6 l
6 -3 l
-11 25 m 39 0 l
0 7 l
-4 6 l
-3 3 l
-6 4 l
-10 0 l
-9 -4 l
-7 -6 l
-3 -10 l
0 -6 l
3 -10 l
7 -6 l
9 -3 l
7 0 l
9 3 l
7 6 l
-4 16 m 0 10 l
-3 6 l
-16 4 m -6 -4 l
-7 -6 l
-3 -10 l
0 -6 l
3 -10 l
7 -6 l
6 -3 l
77 38 m 3 7 l
0 -13 l
-3 6 l
-3 3 l
-6 4 l
-13 0 l
-7 -4 l
-3 -3 l
0 -6 l
3 -3 l
7 -4 l
16 -6 l
6 -3 l
3 -4 l
-35 23 m 3 -3 l
7 -3 l
16 -7 l
6 -3 l
3 -3 l
0 -10 l
-3 -3 l
-6 -3 l
-13 0 l
CS M
-6 3 l
-4 3 l
-3 6 l
0 -12 l
3 6 l
34 32 m 3 7 l
0 -13 l
-3 6 l
-3 3 l
-7 4 l
-12 0 l
-7 -4 l
-3 -3 l
0 -6 l
3 -3 l
7 -4 l
16 -6 l
6 -3 l
3 -4 l
-35 23 m 3 -3 l
7 -3 l
16 -7 l
6 -3 l
3 -3 l
0 -10 l
-3 -3 l
-6 -3 l
-13 0 l
-7 3 l
-3 3 l
-3 6 l
0 -12 l
3 6 l
120 39 m 0 -68 l
4 68 m 0 -68 l
0 58 m 6 6 l
7 4 l
6 0 l
10 -4 l
6 -6 l
3 -10 l
0 -6 l
-3 -10 l
-6 -6 l
-10 -3 l
-6 0 l
-7 3 l
-6 6 l
19 36 m 6 -4 l
7 -6 l
3 -10 l
0 -6 l
-3 -10 l
-7 -6 l
-6 -3 l
-32 45 m 13 0 l
-13 -68 m 22 0 l
-8 68 m 0 -68 l
3 68 m 0 -68 l
0 58 m 7 6 l
6 4 l
7 0 l
9 -4 l
7 -6 l
3 -10 l
0 -6 l
-3 -10 l
-7 -6 l
-9 -3 l
-7 0 l
-6 3 l
-7 6 l
20 36 m 6 -4 l
7 -6 l
3 -10 l
0 -6 l
-3 -10 l
-7 -6 l
-6 -3 l
-32 45 m 12 0 l
-12 -68 m 22 0 l
55 48 m 38 0 l
0 7 l
-3 6 l
-3 3 l
-7 4 l
-9 0 l
-10 -4 l
-6 -6 l
-4 -10 l
0 -6 l
4 -10 l
6 -6 l
10 -3 l
6 0 l
10 3 l
6 6 l
-3 16 m 0 10 l
-3 6 l
-16 4 m -7 -4 l
-6 -6 l
-3 -10 l
0 -6 l
3 -10 l
6 -6 l
7 -3 l
-12 25 m 39 0 l
0 7 l
-3 6 l
-3 3 l
-7 4 l
-9 0 l
-10 -4 l
-7 -6 l
-3 -10 l
0 -6 l
3 -10 l
7 -6 l
10 -3 l
6 0 l
10 3 l
6 6 l
-3 16 m 0 10 l
-3 6 l
-16 4 m -7 -4 l
-6 -6 l
-4 -10 l
0 -6 l
4 -10 l
6 -6 l
7 -3 l
51 45 m 0 -45 l
3 45 m 0 -45 l
0 25 m 3 10 l
7 6 l
6 4 l
10 0 l
3 -4 l
0 -3 l
-3 -3 l
-3 3 l
3 3 l
-39 4 m 13 0 l
-13 -45 m 23 0 l
-8 45 m 0 -45 l
3 45 m 0 -45 l
0 25 m 3 10 l
7 6 l
6 4 l
10 0 l
3 -4 l
0 -3 l
-3 -3 l
-4 3 l
4 3 l
-39 4 m 13 0 l
-13 -45 m 23 0 l
104 67 m 0 -67 l
3 67 m 39 -61 l
-39 55 m 39 -61 l
0 67 m 0 -67 l
-52 67 m 13 0 l
29 0 m 19 0 l
-61 -67 m 19 0 l
-4 67 m 0 -67 l
3 67 m 38 -61 l
-38 55 m 38 -61 l
0 67 m 0 -67 l
-51 67 m 13 0 l
29 0 m 19 0 l
-61 -67 m 19 0 l
81 45 m -10 -4 l
-7 -6 l
-3 -10 l
0 -6 l
3 -10 l
7 -6 l
10 -3 l
6 0 l
10 3 l
6 6 l
3 10 l
0 6 l
-3 10 l
-6 6 l
-10 4 l
-6 0 l
-7 -4 l
-6 -6 l
-4 -10 l
0 -6 l
4 -10 l
6 -6 l
7 -3 l
6 0 m 6 3 l
7 6 l
3 10 l
0 6 l
-3 10 l
-7 6 l
-6 4 l
-2 0 m -9 -4 l
-7 -6 l
-3 -10 l
0 -6 l
3 -10 l
7 -6 l
9 -3 l
7 0 l
9 3 l
7 6 l
3 10 l
0 6 l
-3 10 l
-7 6 l
-9 4 l
-7 0 l
-6 -4 l
-7 -6 l
-3 -10 l
0 -6 l
3 -10 l
7 -6 l
6 -3 l
7 0 m 6 3 l
7 6 l
3 10 l
0 6 l
-3 10 l
-7 6 l
-6 4 l
80 22 m 0 -67 l
3 67 m 0 -67 l
-3 35 m -6 6 l
-7 4 l
-6 0 l
-10 -4 l
-6 -6 l
-4 -10 l
0 -6 l
4 -10 l
6 -6 l
10 -3 l
6 0 l
7 3 l
6 6 l
-19 36 m -7 -4 l
-6 -6 l
-3 -10 l
0 -6 l
3 -10 l
6 -6 l
7 -3 l
9 67 m 13 0 l
-3 -67 m 13 0 l
-8 67 m 0 -67 l
3 67 m 0 -67 l
-3 35 m -7 6 l
-6 4 l
-6 0 l
-10 -4 l
-7 -6 l
-3 -10 l
0 -6 l
3 -10 l
7 -6 l
10 -3 l
6 0 l
6 3 l
7 6 l
-19 36 m -7 -4 l
-6 -6 l
-4 -10 l
0 -6 l
4 -10 l
6 -6 l
7 -3 l
9 67 m 13 0 l
-3 -67 m 13 0 l
22 25 m 39 0 l
0 7 l
-4 6 l
-3 3 l
-6 4 l
-10 0 l
-9 -4 l
-7 -6 l
-3 -10 l
0 -6 l
3 -10 l
7 -6 l
9 -3 l
7 0 l
9 3 l
7 6 l
-4 16 m 0 10 l
-3 6 l
-16 4 m -6 -4 l
-7 -6 l
-3 -10 l
CS M
0 -6 l
3 -10 l
7 -6 l
6 -3 l
-11 25 m 38 0 l
0 7 l
-3 6 l
-3 3 l
-6 4 l
-10 0 l
-10 -4 l
-6 -6 l
-3 -10 l
0 -6 l
3 -10 l
6 -6 l
10 -3 l
6 0 l
10 3 l
6 6 l
-3 16 m 0 10 l
-3 6 l
-16 4 m -6 -4 l
-7 -6 l
-3 -10 l
0 -6 l
3 -10 l
7 -6 l
6 -3 l
CS [] 0 setdash M
CS [] 0 setdash M
272 666 M -67 16 m 67 0 l
-67 3 m 67 0 l
-67 -13 m 0 39 l
3 9 l
3 3 l
7 4 l
6 0 l
7 -4 l
3 -3 l
3 -9 l
0 -26 l
-32 26 m 3 6 l
3 3 l
7 3 l
6 0 l
7 -3 l
3 -3 l
3 -6 l
35 -39 m 0 23 l
-35 6 m 3 6 l
4 4 l
22 9 l
3 3 l
0 4 l
-3 3 l
-26 -23 m 7 4 l
22 6 l
3 3 l
0 7 l
-6 3 l
-3 0 l
-58 -44 m 67 0 l
-67 4 m 67 0 l
-67 -13 m 0 38 l
3 10 l
3 3 l
7 3 l
6 0 l
7 -3 l
3 -3 l
3 -10 l
0 -25 l
-32 25 m 3 7 l
3 3 l
7 3 l
6 0 l
7 -3 l
3 -3 l
3 -7 l
35 -38 m 0 22 l
-35 7 m 3 6 l
4 3 l
22 10 l
3 3 l
0 3 l
-3 4 l
-26 -23 m 7 3 l
22 7 l
3 3 l
0 6 l
-6 4 l
-3 0 l
-16 22 m 0 39 l
-7 0 l
-6 -4 l
-3 -3 l
-4 -6 l
0 -10 l
4 -9 l
6 -7 l
10 -3 l
6 0 l
10 3 l
6 7 l
3 9 l
0 7 l
-3 9 l
-6 7 l
-16 -4 m -10 0 l
-6 -3 l
-4 -16 m 4 -6 l
6 -7 l
10 -3 l
6 0 l
10 3 l
6 7 l
3 6 l
-25 -11 m 0 38 l
-7 0 l
-6 -3 l
-3 -3 l
-4 -6 l
0 -10 l
4 -10 l
6 -6 l
10 -3 l
6 0 l
10 3 l
6 6 l
3 10 l
0 6 l
-3 10 l
-6 6 l
-16 -3 m -10 0 l
-6 -3 l
-4 -16 m 4 -6 l
6 -7 l
10 -3 l
6 0 l
10 3 l
6 7 l
3 6 l
-67 51 m 67 0 l
-67 4 m 67 0 l
-67 -13 m 0 13 l
67 -13 m 0 22 l
-67 -8 m 67 0 l
-67 3 m 67 0 l
-67 -13 m 0 13 l
67 -13 m 0 23 l
-38 26 m 3 0 l
0 -4 l
-3 0 l
-3 4 l
-4 6 l
0 13 l
4 6 l
3 4 l
6 3 l
23 0 l
6 3 l
3 3 l
-38 -9 m 29 0 l
6 3 l
3 6 l
0 3 l
-32 -12 m 4 -4 l
3 -19 l
3 -10 l
6 -3 l
7 0 l
6 3 l
3 10 l
0 10 l
-3 6 l
-6 7 l
-16 -23 m 3 -6 l
6 -4 l
7 0 l
6 4 l
3 6 l
-38 -2 m 3 0 l
0 -3 l
-3 0 l
-3 3 l
-4 7 l
0 13 l
4 6 l
3 3 l
6 4 l
23 0 l
6 3 l
3 3 l
-38 -10 m 29 0 l
6 4 l
3 6 l
0 3 l
-32 -13 m 4 -3 l
3 -19 l
3 -10 l
6 -3 l
7 0 l
6 3 l
3 10 l
0 9 l
-3 7 l
-6 6 l
-16 -22 m 3 -7 l
6 -3 l
7 0 l
6 3 l
3 7 l
-67 61 m 55 0 l
9 3 l
3 6 l
0 7 l
-3 6 l
-6 3 l
-58 -22 m 55 0 l
9 3 l
3 3 l
-45 -19 m 0 26 l
-22 -11 m 55 0 l
9 3 l
3 6 l
0 7 l
-3 6 l
-6 3 l
-58 -22 m 55 0 l
9 3 l
3 3 l
-45 -19 m 0 26 l
-22 35 m 3 -3 l
3 3 l
-3 3 l
-3 -3 l
22 0 m 45 0 l
-45 3 m 45 0 l
-45 -13 m 0 13 l
45 -13 m 0 23 l
-67 -8 m 3 -3 l
3 3 l
-3 3 l
-3 -3 l
22 0 m 45 0 l
-45 3 m 45 0 l
-45 -13 m 0 13 l
45 -13 m 0 23 l
-45 19 m 45 19 l
-45 -16 m 39 16 l
-39 19 m 45 -19 l
-45 -26 m 0 20 l
0 13 m 0 19 l
0 -40 m 45 19 l
-45 -16 m 39 16 l
-39 19 m 45 -19 l
-45 -26 m 0 20 l
0 12 m 0 20 l
20 19 m 0 38 l
-7 0 l
-6 -3 l
-3 -3 l
-4 -6 l
0 -10 l
4 -10 l
6 -6 l
10 -3 l
6 0 l
10 3 l
6 6 l
3 10 l
0 6 l
-3 10 l
-6 6 l
-16 -3 m -10 0 l
-6 -3 l
-4 -16 m 4 -6 l
6 -7 l
10 -3 l
6 0 l
10 3 l
6 7 l
3 6 l
-25 -11 m 0 38 l
-7 0 l
-6 -3 l
-3 -3 l
-4 -7 l
0 -9 l
4 -10 l
6 -6 l
10 -4 l
6 0 l
10 4 l
6 6 l
3 10 l
0 6 l
-3 10 l
-6 6 l
-16 -3 m -10 0 l
-6 -3 l
CS M
-4 -16 m 4 -7 l
6 -6 l
10 -3 l
6 0 l
10 3 l
6 6 l
3 7 l
-67 110 m 67 0 l
-67 4 m 67 0 l
-67 -13 m 0 38 l
3 10 l
3 3 l
7 3 l
9 0 l
7 -3 l
3 -3 l
3 -10 l
0 -25 l
-35 25 m 3 7 l
3 3 l
7 3 l
9 0 l
7 -3 l
3 -3 l
3 -7 l
32 -38 m 0 22 l
-67 -8 m 67 0 l
-67 3 m 67 0 l
-67 -12 m 0 38 l
3 10 l
3 3 l
7 3 l
9 0 l
7 -3 l
3 -3 l
3 -10 l
0 -26 l
-35 26 m 3 7 l
3 3 l
7 3 l
9 0 l
7 -3 l
3 -3 l
3 -7 l
32 -38 m 0 22 l
-25 58 m 0 38 l
-7 0 l
-6 -3 l
-3 -3 l
-4 -6 l
0 -10 l
4 -10 l
6 -6 l
10 -3 l
6 0 l
10 3 l
6 6 l
3 10 l
0 6 l
-3 10 l
-6 6 l
-16 -3 m -10 0 l
-6 -3 l
-4 -16 m 4 -6 l
6 -7 l
10 -3 l
6 0 l
10 3 l
6 7 l
3 6 l
-25 -11 m 0 38 l
-7 0 l
-6 -3 l
-3 -3 l
-4 -7 l
0 -9 l
4 -10 l
6 -6 l
10 -4 l
6 0 l
10 4 l
6 6 l
3 10 l
0 6 l
-3 10 l
-6 6 l
-16 -3 m -10 0 l
-6 -3 l
-4 -16 m 4 -7 l
6 -6 l
10 -3 l
6 0 l
10 3 l
6 6 l
3 7 l
-45 51 m 45 0 l
-45 3 m 45 0 l
-25 0 m -10 4 l
-6 6 l
-4 6 l
0 10 l
4 3 l
3 0 l
3 -3 l
-3 -3 l
-3 3 l
-4 -39 m 0 13 l
45 -13 m 0 23 l
-45 -8 m 45 0 l
-45 3 m 45 0 l
-25 0 m -10 3 l
-6 7 l
-4 6 l
0 10 l
4 3 l
3 0 l
3 -3 l
-3 -3 l
-3 3 l
-4 -39 m 0 13 l
45 -13 m 0 23 l
-64 61 m 3 -3 l
4 3 l
-4 3 l
-3 0 l
-3 -3 l
0 -7 l
3 -6 l
7 -3 l
57 0 l
-67 9 m 3 -3 l
7 -3 l
57 0 l
-45 -13 m 0 26 l
45 -26 m 0 23 l
-64 8 m 3 -4 l
4 4 l
-4 3 l
-3 0 l
-3 -3 l
0 -7 l
3 -6 l
7 -4 l
57 0 l
-67 10 m 3 -3 l
7 -3 l
57 0 l
-45 -13 m 0 26 l
45 -26 m 0 22 l
-45 45 m 4 -9 l
6 -7 l
10 -3 l
6 0 l
10 3 l
6 7 l
3 9 l
0 7 l
-3 9 l
-6 7 l
-10 3 l
-6 0 l
-10 -3 l
-6 -7 l
-4 -9 l
0 -7 l
4 -6 l
6 -7 l
10 -3 l
6 0 l
10 3 l
6 7 l
3 6 l
0 7 m -3 6 l
-6 7 l
-10 3 l
-6 0 l
-10 -3 l
-6 -7 l
-4 -6 l
0 -2 m 4 -10 l
6 -6 l
10 -3 l
6 0 l
10 3 l
6 6 l
3 10 l
0 6 l
-3 10 l
-6 7 l
-10 3 l
-6 0 l
-10 -3 l
-6 -7 l
-4 -10 l
0 -6 l
4 -6 l
6 -7 l
10 -3 l
6 0 l
10 3 l
6 7 l
3 6 l
0 6 m -3 7 l
-6 6 l
-10 4 l
-6 0 l
-10 -4 l
-6 -6 l
-4 -7 l
0 49 m 45 0 l
-45 3 m 45 0 l
-25 0 m -10 3 l
-6 6 l
-4 7 l
0 10 l
4 3 l
3 0 l
3 -3 l
-3 -4 l
-3 4 l
-4 -39 m 0 13 l
45 -13 m 0 22 l
-45 -8 m 45 0 l
-45 4 m 45 0 l
-25 0 m -10 3 l
-6 6 l
-4 7 l
0 9 l
4 4 l
3 0 l
3 -4 l
-3 -3 l
-3 3 l
-4 -38 m 0 13 l
45 -13 m 0 22 l
-45 45 m 45 0 l
-45 3 m 45 0 l
-35 0 m -6 7 l
-4 9 l
0 7 l
4 10 l
6 3 l
35 0 l
-45 -13 m 4 6 l
6 4 l
35 0 l
-35 3 m -6 6 l
-4 10 l
0 6 l
4 10 l
6 3 l
35 0 l
-45 -13 m 4 7 l
6 3 l
35 0 l
-45 -80 m 0 12 l
45 -12 m 0 22 l
0 13 m 0 22 l
0 13 m 0 23 l
-45 -79 m 45 0 l
-45 3 m 45 0 l
-35 0 m -6 7 l
-4 9 l
0 7 l
4 9 l
6 4 l
35 0 l
-45 -13 m 4 6 l
6 3 l
35 0 l
-35 4 m -6 6 l
-4 10 l
0 6 l
4 10 l
6 3 l
35 0 l
-45 -13 m 4 6 l
6 4 l
35 0 l
-45 -81 m 0 13 l
45 -13 m 0 23 l
0 13 m 0 22 l
0 13 m 0 22 l
-38 26 m 3 0 l
0 -3 l
-3 0 l
-3 3 l
-4 7 l
0 12 l
4 7 l
3 3 l
6 3 l
23 0 l
6 3 l
3 4 l
-38 -10 m 29 0 l
6 3 l
3 7 l
0 3 l
-32 -13 m 4 -3 l
CS M
3 -19 l
3 -10 l
6 -3 l
7 0 l
6 3 l
3 10 l
0 9 l
-3 7 l
-6 6 l
-16 -22 m 3 -7 l
6 -3 l
7 0 l
6 3 l
3 7 l
-38 -2 m 3 0 l
0 -3 l
-3 0 l
-3 3 l
-4 6 l
0 13 l
4 7 l
3 3 l
6 3 l
23 0 l
6 3 l
3 3 l
-38 -9 m 29 0 l
6 3 l
3 6 l
0 4 l
-32 -13 m 4 -3 l
3 -20 l
3 -9 l
6 -3 l
7 0 l
6 3 l
3 9 l
0 10 l
-3 6 l
-6 7 l
-16 -23 m 3 -6 l
6 -3 l
7 0 l
6 3 l
3 6 l
-45 61 m 45 0 l
-45 4 m 45 0 l
-35 0 m -6 6 l
-4 10 l
0 6 l
4 10 l
6 3 l
35 0 l
-45 -13 m 4 6 l
6 4 l
35 0 l
-45 -45 m 0 13 l
45 -13 m 0 22 l
0 13 m 0 22 l
-45 -43 m 45 0 l
-45 3 m 45 0 l
-35 0 m -6 7 l
-4 9 l
0 7 l
4 9 l
6 4 l
35 0 l
-45 -13 m 4 6 l
6 3 l
35 0 l
-45 -44 m 0 12 l
45 -12 m 0 22 l
0 13 m 0 22 l
-35 58 m 3 -3 l
4 3 l
-4 3 l
-3 0 l
-6 -6 l
-4 -7 l
0 -9 l
4 -10 l
6 -6 l
10 -3 l
6 0 l
10 3 l
6 6 l
3 10 l
0 6 l
-3 10 l
-6 6 l
-36 -22 m 4 -7 l
6 -6 l
10 -3 l
6 0 l
10 3 l
6 6 l
3 7 l
-35 24 m 3 -3 l
4 3 l
-4 3 l
-3 0 l
-6 -6 l
-4 -7 l
0 -9 l
4 -10 l
6 -6 l
10 -4 l
6 0 l
10 4 l
6 6 l
3 10 l
0 6 l
-3 10 l
-6 6 l
-36 -22 m 4 -7 l
6 -6 l
10 -3 l
6 0 l
10 3 l
6 6 l
3 7 l
-25 48 m 0 38 l
-7 0 l
-6 -3 l
-3 -3 l
-4 -7 l
0 -9 l
4 -10 l
6 -6 l
10 -3 l
6 0 l
10 3 l
6 6 l
3 10 l
0 6 l
-3 10 l
-6 6 l
-16 -3 m -10 0 l
-6 -3 l
-4 -16 m 4 -7 l
6 -6 l
10 -3 l
6 0 l
10 3 l
6 6 l
3 7 l
-25 -11 m 0 38 l
-7 0 l
-6 -3 l
-3 -3 l
-4 -7 l
0 -9 l
4 -10 l
6 -6 l
10 -4 l
6 0 l
10 4 l
6 6 l
3 10 l
0 6 l
-3 10 l
-6 6 l
-16 -3 m -10 0 l
-6 -3 l
-4 -16 m 4 -7 l
6 -6 l
10 -3 l
6 0 l
10 3 l
6 6 l
3 7 l
CS [] 0 setdash M
CS M 3 100 mul 72 div dup setlinewidth
/P [ /currentpoint cvx 0 5 -1 roll .05 add dup -2 div 0 exch /rmoveto cvx /rlineto cvx /stroke cvx /moveto cvx ] cvx def
CS [] 0 setdash M
438 604 M 121 215 l
243 376 l
487 343 l
972 51 l
438 604 M 13 -13 m -13 13 l
13 13 m -13 -13 l
121 215 m 13 -13 m -26 26 l
26 0 m -26 -26 l
0 26 m 256 363 m 14 -13 m -27 27 l
27 0 m -27 -27 l
0 27 m 500 329 m 13 -13 m -27 27 l
27 0 m -27 -27 l
0 27 m 986 37 m -13 14 l
13 -14 m -13 -13 l
0 26 m CS [32 24] 0 setdash M
438 1593 M 121 251 l
243 127 l
487 -225 l
972 -157 l
438 1593 M 13 -14 m -13 14 l
13 13 m -13 -13 l
121 251 m 13 -13 m -26 27 l
26 -1 m -26 -26 l
0 26 m 256 114 m 14 -13 m -27 27 l
27 0 m -27 -27 l
0 27 m 500 -239 m 13 -13 m -27 27 l
27 0 m -27 -27 l
0 27 m 986 -171 m -13 14 l
13 -14 m -13 -13 l
0 26 m stroke
grestore
showpage
end
