%!PS-Adobe-2.0 EPSF-2.0
%%Creator: SM
%%BoundingBox: 18 144 592 718
%%DocumentFonts: Helvetica
%%EndComments
 20 dict begin
72 300 div dup scale
1 setlinejoin 0 setlinecap
/Helvetica findfont 55 scalefont setfont 
/B {CS newpath moveto} def
/F {moveto 0 setlinecap} def
/C {CS M 1 1 3 {pop 3 1 roll 255 div} for SET_COLOUR} def
/CS {currentpoint stroke} def
/CF {currentpoint eofill} def
/L {lineto} def /l {rlineto} def /M {moveto} def /m {rmoveto} def
/P {currentpoint 0 1 rlineto stroke moveto} def
/T {currentlinecap exch 1 setlinecap show setlinecap} def
errordict /nocurrentpoint {pop 0 0 M currentpoint} put
/SET_COLOUR statusdict begin /processcolors where
  {pop processcolors 1 gt} {false} ifelse
  {(setrgbcolor)} {(pop pop pop)} ifelse cvx end def
 80 600 translate
gsave
CS [] 0 setdash M
CS M 1 100 mul 72 div dup setlinewidth
/P [ /currentpoint cvx 0 5 -1 roll .05 add dup -2 div 0 exch /rmoveto cvx /rlineto cvx /stroke cvx /moveto cvx ] cvx def
 0 0 0 C
CS M 2 100 mul 72 div dup setlinewidth
/P [ /currentpoint cvx 0 5 -1 roll .05 add dup -2 div 0 exch /rmoveto cvx /rlineto cvx /stroke cvx /moveto cvx ] cvx def
CS [] 0 setdash M
438 328 M 1823 0 l
0 1933 l
438 2261 L
438 328 L
1823 0 l
438 328 M 1823 0 l
438 328 M 0 58 l
-29 -165 m 25 58 m -9 -3 l
-5 -8 l
-3 -14 l
0 -8 l
3 -14 l
5 -8 l
9 -3 l
5 0 l
8 3 l
6 8 l
2 14 l
0 8 l
-2 14 l
-6 8 l
-8 3 l
-5 0 l
-6 -3 l
-3 -3 l
-2 -5 l
-3 -14 l
0 -8 l
3 -14 l
2 -5 l
3 -3 l
6 -3 l
5 0 m 5 3 l
3 3 l
3 5 l
3 14 l
0 8 l
-3 14 l
-3 5 l
-3 3 l
-5 3 l
-1 0 m -9 -3 l
-5 -8 l
-3 -14 l
0 -8 l
3 -14 l
5 -8 l
9 -3 l
5 0 l
8 3 l
6 8 l
2 14 l
0 8 l
-2 14 l
-6 8 l
-8 3 l
-5 0 l
-6 -3 l
-3 -3 l
-2 -5 l
-3 -14 l
0 -8 l
3 -14 l
2 -5 l
3 -3 l
6 -3 l
5 0 m 6 3 l
2 3 l
3 5 l
3 14 l
0 8 l
-3 14 l
-3 5 l
-2 3 l
-6 3 l
129 49 m 0 29 l
134 -29 m 0 29 l
134 -29 m 0 29 l
134 -29 m 0 58 l
-57 -165 m 11 47 m 2 -3 l
-2 -3 l
-3 3 l
0 3 l
3 5 l
2 3 l
8 3 l
11 0 l
9 -3 l
2 -3 l
3 -5 l
0 -6 l
-3 -5 l
-8 -6 l
-14 -5 l
-5 -3 l
-5 -5 l
-3 -8 l
0 -9 l
24 58 m 6 -3 l
3 -3 l
2 -5 l
0 -6 l
-2 -5 l
-9 -6 l
-11 -5 l
-13 -19 m 3 3 l
5 0 l
14 -6 l
8 0 l
5 3 l
3 3 l
-30 0 m 14 -9 l
11 0 l
2 3 l
3 6 l
0 5 l
-31 33 m 2 -3 l
-2 -3 l
-3 3 l
0 3 l
3 5 l
2 3 l
9 3 l
10 0 l
9 -3 l
2 -3 l
3 -5 l
0 -6 l
-3 -5 l
-8 -6 l
-13 -5 l
-6 -3 l
-5 -5 l
-3 -8 l
0 -9 l
24 58 m 6 -3 l
3 -3 l
2 -5 l
0 -6 l
-2 -5 l
-9 -6 l
-10 -5 l
-14 -19 m 3 3 l
5 0 l
14 -6 l
8 0 l
5 3 l
3 3 l
-30 0 m 14 -9 l
11 0 l
2 3 l
3 6 l
0 5 l
36 44 m -9 -3 l
-5 -8 l
-3 -14 l
0 -8 l
3 -14 l
5 -8 l
9 -3 l
5 0 l
8 3 l
6 8 l
2 14 l
0 8 l
-2 14 l
-6 8 l
-8 3 l
-5 0 l
-6 -3 l
-3 -3 l
-2 -5 l
-3 -14 l
0 -8 l
3 -14 l
2 -5 l
3 -3 l
6 -3 l
5 0 m 5 3 l
3 3 l
3 5 l
3 14 l
0 8 l
-3 14 l
-3 5 l
-3 3 l
-5 3 l
-1 0 m -9 -3 l
-5 -8 l
-3 -14 l
0 -8 l
3 -14 l
5 -8 l
9 -3 l
5 0 l
8 3 l
6 8 l
2 14 l
0 8 l
-2 14 l
-6 8 l
-8 3 l
-5 0 l
-6 -3 l
-3 -3 l
-2 -5 l
-3 -14 l
0 -8 l
3 -14 l
2 -5 l
3 -3 l
6 -3 l
5 0 m 6 3 l
2 3 l
3 5 l
3 14 l
0 8 l
-3 14 l
-3 5 l
-2 3 l
-6 3 l
96 49 m 0 29 l
134 -29 m 0 29 l
134 -29 m 0 29 l
134 -29 m 0 58 l
-57 -165 m 33 52 m 0 -52 l
2 58 m 0 -58 l
0 58 m -30 -41 l
44 0 l
-25 -17 m 20 0 l
-7 52 m 0 -52 l
3 58 m 0 -58 l
0 58 m -31 -41 l
44 0 l
-24 -17 m 19 0 l
38 58 m -8 -3 l
-6 -8 l
-3 -14 l
0 -8 l
3 -14 l
6 -8 l
8 -3 l
5 0 l
8 3 l
6 8 l
3 14 l
0 8 l
-3 14 l
-6 8 l
-8 3 l
-5 0 l
-6 -3 l
-2 -3 l
-3 -5 l
-3 -14 l
0 -8 l
3 -14 l
3 -5 l
2 -3 l
6 -3 l
5 0 m 6 3 l
2 3 l
3 5 l
3 14 l
0 8 l
-3 14 l
-3 5 l
-2 3 l
-6 3 l
-1 0 m -8 -3 l
-6 -8 l
-2 -14 l
0 -8 l
2 -14 l
6 -8 l
8 -3 l
5 0 l
9 3 l
5 8 l
3 14 l
0 8 l
-3 14 l
-5 8 l
-9 3 l
-5 0 l
-6 -3 l
-2 -3 l
-3 -5 l
-3 -14 l
0 -8 l
3 -14 l
3 -5 l
2 -3 l
6 -3 l
5 0 m 6 3 l
3 3 l
2 5 l
3 14 l
0 8 l
-3 14 l
CS M
-2 5 l
-3 3 l
-6 3 l
96 49 m 0 29 l
134 -29 m 0 29 l
134 -29 m 0 29 l
135 -29 m 0 58 l
-58 -165 m 41 49 m -3 -2 l
3 -3 l
3 3 l
0 2 l
-3 6 l
-5 3 l
-8 0 l
-9 -3 l
-5 -6 l
-3 -5 l
-3 -11 l
0 -16 l
3 -8 l
6 -6 l
8 -3 l
5 0 l
8 3 l
6 6 l
3 8 l
0 2 l
-3 9 l
-6 5 l
-8 3 l
-2 0 l
-9 -3 l
-5 -5 l
-3 -9 l
17 39 m -6 -3 l
-5 -6 l
-3 -5 l
-3 -11 l
0 -16 l
3 -8 l
5 -6 l
6 -3 l
5 0 m 6 3 l
5 6 l
3 8 l
0 2 l
-3 9 l
-5 5 l
-6 3 l
15 13 m -2 -2 l
2 -3 l
3 3 l
0 2 l
-3 6 l
-5 3 l
-8 0 l
-9 -3 l
-5 -6 l
-3 -5 l
-2 -11 l
0 -16 l
2 -8 l
6 -6 l
8 -3 l
5 0 l
9 3 l
5 6 l
3 8 l
0 2 l
-3 9 l
-5 5 l
-9 3 l
-2 0 l
-9 -3 l
-5 -5 l
-3 -9 l
17 39 m -6 -3 l
-5 -6 l
-3 -5 l
-3 -11 l
0 -16 l
3 -8 l
5 -6 l
6 -3 l
5 0 m 6 3 l
5 6 l
3 8 l
0 2 l
-3 9 l
-5 5 l
-6 3 l
52 22 m -8 -3 l
-6 -8 l
-2 -14 l
0 -8 l
2 -14 l
6 -8 l
8 -3 l
6 0 l
8 3 l
5 8 l
3 14 l
0 8 l
-3 14 l
-5 8 l
-8 3 l
-6 0 l
-5 -3 l
-3 -3 l
-3 -5 l
-3 -14 l
0 -8 l
3 -14 l
3 -5 l
3 -3 l
5 -3 l
6 0 m 5 3 l
3 3 l
3 5 l
2 14 l
0 8 l
-2 14 l
-3 5 l
-3 3 l
-5 3 l
-2 0 m -8 -3 l
-5 -8 l
-3 -14 l
0 -8 l
3 -14 l
5 -8 l
8 -3 l
6 0 l
8 3 l
5 8 l
3 14 l
0 8 l
-3 14 l
-5 8 l
-8 3 l
-6 0 l
-5 -3 l
-3 -3 l
-3 -5 l
-2 -14 l
0 -8 l
2 -14 l
3 -5 l
3 -3 l
5 -3 l
6 0 m 5 3 l
3 3 l
3 5 l
2 14 l
0 8 l
-2 14 l
-3 5 l
-3 3 l
-5 3 l
96 49 m 0 29 l
438 2261 M 1823 0 l
438 2261 M 0 -58 l
134 58 m 0 -29 l
134 29 m 0 -29 l
134 29 m 0 -29 l
134 29 m 0 -58 l
134 58 m 0 -29 l
134 29 m 0 -29 l
134 29 m 0 -29 l
134 29 m 0 -58 l
134 58 m 0 -29 l
134 29 m 0 -29 l
134 29 m 0 -29 l
135 29 m 0 -58 l
134 58 m 0 -29 l
438 328 M 0 1933 l
438 328 M 58 0 l
-165 -28 m 24 57 m -8 -3 l
-5 -8 l
-3 -14 l
0 -8 l
3 -14 l
5 -8 l
8 -2 l
6 0 l
8 2 l
5 8 l
3 14 l
0 8 l
-3 14 l
-5 8 l
-8 3 l
-6 0 l
-5 -3 l
-3 -3 l
-3 -5 l
-2 -14 l
0 -8 l
2 -14 l
3 -5 l
3 -3 l
5 -2 l
6 0 m 5 2 l
3 3 l
3 5 l
2 14 l
0 8 l
-2 14 l
-3 5 l
-3 3 l
-5 3 l
-2 0 m -8 -3 l
-5 -8 l
-3 -14 l
0 -8 l
3 -14 l
5 -8 l
8 -2 l
6 0 l
8 2 l
5 8 l
3 14 l
0 8 l
-3 14 l
-5 8 l
-8 3 l
-6 0 l
-5 -3 l
-3 -3 l
-3 -5 l
-2 -14 l
0 -8 l
2 -14 l
3 -5 l
3 -3 l
5 -2 l
6 0 m 5 2 l
3 3 l
3 5 l
2 14 l
0 8 l
-2 14 l
-3 5 l
-3 3 l
-5 3 l
73 52 m 29 0 l
-29 80 m 29 0 l
-29 81 m 29 0 l
-29 80 m 58 0 l
243 622 M 25 57 m -8 -3 l
-6 -8 l
-2 -14 l
0 -8 l
2 -13 l
6 -9 l
8 -2 l
5 0 l
9 2 l
5 9 l
3 13 l
0 8 l
-3 14 l
-5 8 l
-9 3 l
-5 0 l
-5 -3 l
-3 -2 l
-3 -6 l
-3 -14 l
0 -8 l
3 -13 l
3 -6 l
3 -3 l
5 -2 l
5 0 m 6 2 l
3 3 l
2 6 l
3 13 l
0 8 l
-3 14 l
-2 6 l
-3 2 l
-6 3 l
-1 0 m -8 -3 l
-6 -8 l
-2 -14 l
0 -8 l
2 -13 l
6 -9 l
8 -2 l
6 0 l
8 2 l
5 9 l
3 13 l
0 8 l
-3 14 l
-5 8 l
-8 3 l
-6 0 l
-5 -3 l
CS M
-3 -2 l
-3 -6 l
-3 -14 l
0 -8 l
3 -13 l
3 -6 l
3 -3 l
5 -2 l
6 0 m 5 2 l
3 3 l
2 6 l
3 13 l
0 8 l
-3 14 l
-2 6 l
-3 2 l
-5 3 l
40 -52 m -2 -3 l
2 -2 l
3 2 l
-3 3 l
5 0 m -3 -3 l
3 -2 l
2 2 l
-2 3 l
27 41 m 3 -3 l
-3 -2 l
-3 2 l
0 3 l
3 6 l
3 2 l
8 3 l
11 0 l
8 -3 l
2 -2 l
3 -6 l
0 -5 l
-3 -6 l
-8 -5 l
-13 -6 l
-6 -2 l
-5 -6 l
-3 -8 l
0 -8 l
25 57 m 5 -3 l
3 -2 l
2 -6 l
0 -5 l
-2 -6 l
-8 -5 l
-11 -6 l
-14 -19 m 3 3 l
5 0 l
14 -6 l
8 0 l
5 3 l
3 3 l
-30 0 m 14 -8 l
11 0 l
2 2 l
3 6 l
0 5 l
-31 33 m 3 -3 l
-3 -2 l
-3 2 l
0 3 l
3 6 l
3 2 l
8 3 l
11 0 l
8 -3 l
3 -2 l
2 -6 l
0 -5 l
-2 -6 l
-9 -5 l
-13 -6 l
-6 -2 l
-5 -6 l
-3 -8 l
0 -8 l
25 57 m 5 -3 l
3 -2 l
3 -6 l
0 -5 l
-3 -6 l
-8 -5 l
-11 -6 l
-14 -19 m 3 3 l
5 0 l
14 -6 l
8 0 l
6 3 l
2 3 l
-30 0 m 14 -8 l
11 0 l
3 2 l
2 6 l
0 5 l
49 96 m 29 0 l
-29 80 m 29 0 l
-29 81 m 29 0 l
-29 80 m 58 0 l
243 944 M 25 57 m -8 -3 l
-6 -8 l
-2 -13 l
0 -9 l
2 -13 l
6 -8 l
8 -3 l
5 0 l
9 3 l
5 8 l
3 13 l
0 9 l
-3 13 l
-5 8 l
-9 3 l
-5 0 l
-5 -3 l
-3 -2 l
-3 -6 l
-3 -13 l
0 -9 l
3 -13 l
3 -6 l
3 -2 l
5 -3 l
5 0 m 6 3 l
3 2 l
2 6 l
3 13 l
0 9 l
-3 13 l
-2 6 l
-3 2 l
-6 3 l
-1 0 m -8 -3 l
-6 -8 l
-2 -13 l
0 -9 l
2 -13 l
6 -8 l
8 -3 l
6 0 l
8 3 l
5 8 l
3 13 l
0 9 l
-3 13 l
-5 8 l
-8 3 l
-6 0 l
-5 -3 l
-3 -2 l
-3 -6 l
-3 -13 l
0 -9 l
3 -13 l
3 -6 l
3 -2 l
5 -3 l
6 0 m 5 3 l
3 2 l
2 6 l
3 13 l
0 9 l
-3 13 l
-2 6 l
-3 2 l
-5 3 l
40 -52 m -2 -2 l
2 -3 l
3 3 l
-3 2 l
5 0 m -3 -2 l
3 -3 l
2 3 l
-2 2 l
49 47 m 0 -52 l
2 57 m 0 -57 l
0 57 m -30 -41 l
44 0 l
-25 -16 m 19 0 l
-6 52 m 0 -52 l
2 57 m 0 -57 l
0 57 m -30 -41 l
44 0 l
-25 -16 m 20 0 l
51 109 m 29 0 l
-29 81 m 29 0 l
-29 80 m 29 0 l
-29 81 m 58 0 l
243 1266 M 25 57 m -8 -2 l
-6 -9 l
-2 -13 l
0 -8 l
2 -14 l
6 -8 l
8 -3 l
5 0 l
9 3 l
5 8 l
3 14 l
0 8 l
-3 13 l
-5 9 l
-9 2 l
-5 0 l
-5 -2 l
-3 -3 l
-3 -6 l
-3 -13 l
0 -8 l
3 -14 l
3 -6 l
3 -2 l
5 -3 l
5 0 m 6 3 l
3 2 l
2 6 l
3 14 l
0 8 l
-3 13 l
-2 6 l
-3 3 l
-6 2 l
-1 0 m -8 -2 l
-6 -9 l
-2 -13 l
0 -8 l
2 -14 l
6 -8 l
8 -3 l
6 0 l
8 3 l
5 8 l
3 14 l
0 8 l
-3 13 l
-5 9 l
-8 2 l
-6 0 l
-5 -2 l
-3 -3 l
-3 -6 l
-3 -13 l
0 -8 l
3 -14 l
3 -6 l
3 -2 l
5 -3 l
6 0 m 5 3 l
3 2 l
2 6 l
3 14 l
0 8 l
-3 13 l
-2 6 l
-3 3 l
-5 2 l
40 -52 m -2 -2 l
2 -3 l
3 3 l
-3 2 l
5 0 m -3 -2 l
3 -3 l
2 3 l
-2 2 l
57 44 m -3 -3 l
3 -2 l
2 2 l
0 3 l
-2 6 l
-6 2 l
-8 0 l
-8 -2 l
-5 -6 l
-3 -5 l
-3 -11 l
0 -17 l
3 -8 l
5 -5 l
8 -3 l
6 0 l
8 3 l
5 5 l
3 8 l
0 3 l
-3 8 l
-5 6 l
-8 2 l
-3 0 l
-8 -2 l
-5 -6 l
-3 -8 l
16 38 m -5 -2 l
-6 -6 l
-2 -5 l
-3 -11 l
CS M
0 -17 l
3 -8 l
5 -5 l
5 -3 l
6 0 m 5 3 l
6 5 l
2 8 l
0 3 l
-2 8 l
-6 6 l
-5 2 l
15 14 m -3 -3 l
3 -2 l
3 2 l
0 3 l
-3 6 l
-6 2 l
-8 0 l
-8 -2 l
-5 -6 l
-3 -5 l
-3 -11 l
0 -17 l
3 -8 l
5 -5 l
8 -3 l
6 0 l
8 3 l
6 5 l
2 8 l
0 3 l
-2 8 l
-6 6 l
-8 2 l
-3 0 l
-8 -2 l
-5 -6 l
-3 -8 l
16 38 m -5 -2 l
-6 -6 l
-2 -5 l
-3 -11 l
0 -17 l
3 -8 l
5 -5 l
5 -3 l
6 0 m 5 3 l
6 5 l
3 8 l
0 3 l
-3 8 l
-6 6 l
-5 2 l
65 74 m 29 0 l
-29 81 m 29 0 l
-29 80 m 29 0 l
-29 81 m 58 0 l
243 1588 M 25 57 m -8 -2 l
-6 -9 l
-2 -13 l
0 -8 l
2 -14 l
6 -8 l
8 -3 l
5 0 l
9 3 l
5 8 l
3 14 l
0 8 l
-3 13 l
-5 9 l
-9 2 l
-5 0 l
-5 -2 l
-3 -3 l
-3 -6 l
-3 -13 l
0 -8 l
3 -14 l
3 -5 l
3 -3 l
5 -3 l
5 0 m 6 3 l
3 3 l
2 5 l
3 14 l
0 8 l
-3 13 l
-2 6 l
-3 3 l
-6 2 l
-1 0 m -8 -2 l
-6 -9 l
-2 -13 l
0 -8 l
2 -14 l
6 -8 l
8 -3 l
6 0 l
8 3 l
5 8 l
3 14 l
0 8 l
-3 13 l
-5 9 l
-8 2 l
-6 0 l
-5 -2 l
-3 -3 l
-3 -6 l
-3 -13 l
0 -8 l
3 -14 l
3 -5 l
3 -3 l
5 -3 l
6 0 m 5 3 l
3 3 l
2 5 l
3 14 l
0 8 l
-3 13 l
-2 6 l
-3 3 l
-5 2 l
40 -51 m -2 -3 l
2 -3 l
3 3 l
-3 3 l
5 0 m -3 -3 l
3 -3 l
2 3 l
-2 3 l
38 51 m -8 -2 l
-3 -6 l
0 -8 l
3 -5 l
8 -3 l
11 0 l
8 3 l
2 5 l
0 8 l
-2 6 l
-8 2 l
-11 0 l
-6 -2 l
-2 -6 l
0 -8 l
2 -5 l
6 -3 l
11 0 m 5 3 l
3 5 l
0 8 l
-3 6 l
-5 2 l
-11 -24 m -8 -3 l
-3 -3 l
-3 -5 l
0 -11 l
3 -5 l
3 -3 l
8 -3 l
11 0 l
8 3 l
2 3 l
3 5 l
0 11 l
-3 5 l
-2 3 l
-8 3 l
-11 0 m -6 -3 l
-2 -3 l
-3 -5 l
0 -11 l
3 -5 l
2 -3 l
6 -3 l
11 0 m 5 3 l
3 3 l
2 5 l
0 11 l
-2 5 l
-3 3 l
-5 3 l
-7 24 m -8 -2 l
-3 -6 l
0 -8 l
3 -5 l
8 -3 l
11 0 l
8 3 l
3 5 l
0 8 l
-3 6 l
-8 2 l
-11 0 l
-6 -2 l
-2 -6 l
0 -8 l
2 -5 l
6 -3 l
11 0 m 5 3 l
3 5 l
0 8 l
-3 6 l
-5 2 l
-11 -24 m -8 -3 l
-3 -3 l
-3 -5 l
0 -11 l
3 -5 l
3 -3 l
8 -3 l
11 0 l
8 3 l
3 3 l
2 5 l
0 11 l
-2 5 l
-3 3 l
-8 3 l
-11 0 m -6 -3 l
-2 -3 l
-3 -5 l
0 -11 l
3 -5 l
2 -3 l
6 -3 l
11 0 m 5 3 l
3 3 l
3 5 l
0 11 l
-3 5 l
-3 3 l
-5 3 l
62 76 m 29 0 l
-29 81 m 29 0 l
-29 80 m 29 0 l
-29 81 m 58 0 l
-165 -29 m 16 47 m 6 2 l
8 9 l
0 -58 l
-3 55 m 0 -55 l
-11 0 m 25 0 l
-21 47 m 6 2 l
8 9 l
0 -58 l
-3 55 m 0 -55 l
-11 0 m 25 0 l
62 109 m 29 0 l
-29 81 m 29 0 l
-29 81 m 29 0 l
-29 80 m 58 0 l
243 2232 M 17 47 m 5 2 l
8 9 l
0 -58 l
-2 55 m 0 -55 l
-11 0 m 24 0 l
-20 47 m 5 2 l
9 9 l
0 -58 l
-3 55 m 0 -55 l
-11 0 m 24 0 l
30 6 m -2 -3 l
2 -3 l
3 3 l
-3 3 l
5 0 m -3 -3 l
3 -3 l
2 3 l
-2 3 l
27 41 m 3 -3 l
-3 -3 l
-3 3 l
0 3 l
3 5 l
3 3 l
8 3 l
11 0 l
8 -3 l
2 -3 l
3 -5 l
0 -6 l
-3 -5 l
-8 -6 l
-13 -5 l
-6 -3 l
-5 -5 l
-3 -8 l
0 -9 l
25 58 m 5 -3 l
3 -3 l
2 -5 l
0 -6 l
-2 -5 l
-8 -6 l
-11 -5 l
-14 -19 m 3 3 l
5 0 l
14 -6 l
CS M
8 0 l
5 3 l
3 3 l
-30 0 m 14 -9 l
11 0 l
2 3 l
3 6 l
0 5 l
-31 33 m 3 -3 l
-3 -3 l
-3 3 l
0 3 l
3 5 l
3 3 l
8 3 l
11 0 l
8 -3 l
3 -3 l
2 -5 l
0 -6 l
-2 -5 l
-9 -6 l
-13 -5 l
-6 -3 l
-5 -5 l
-3 -8 l
0 -9 l
25 58 m 5 -3 l
3 -3 l
3 -5 l
0 -6 l
-3 -5 l
-8 -6 l
-11 -5 l
-14 -19 m 3 3 l
5 0 l
14 -6 l
8 0 l
6 3 l
2 3 l
-30 0 m 14 -9 l
11 0 l
3 3 l
2 6 l
0 5 l
2261 328 M 0 1933 l
2261 328 M -58 0 l
58 81 m -29 0 l
29 80 m -29 0 l
29 81 m -29 0 l
29 80 m -58 0 l
58 81 m -29 0 l
29 80 m -29 0 l
29 81 m -29 0 l
29 80 m -58 0 l
58 81 m -29 0 l
29 81 m -29 0 l
29 80 m -29 0 l
29 81 m -58 0 l
58 80 m -29 0 l
29 81 m -29 0 l
29 80 m -29 0 l
29 81 m -58 0 l
58 80 m -29 0 l
29 81 m -29 0 l
29 80 m -29 0 l
29 81 m -58 0 l
58 80 m -29 0 l
29 81 m -29 0 l
29 81 m -29 0 l
29 80 m -58 0 l
CS [] 0 setdash M
CS [] 0 setdash M
844 96 M 16 67 m 0 -67 l
3 67 m 39 -61 l
-39 55 m 39 -61 l
0 67 m 0 -67 l
-52 67 m 13 0 l
29 0 m 19 0 l
-61 -67 m 20 0 l
-5 67 m 0 -67 l
3 67 m 38 -61 l
-38 55 m 38 -61 l
0 67 m 0 -67 l
-51 67 m 13 0 l
29 0 m 19 0 l
-61 -67 m 19 0 l
68 45 m 0 -36 l
3 -6 l
10 -3 l
6 0 l
10 3 l
6 6 l
-32 36 m 0 -36 l
3 -6 l
7 -3 l
22 45 m 0 -45 l
3 45 m 0 -45 l
-48 45 m 13 0 l
22 0 m 13 0 l
-3 -45 m 13 0 l
-43 45 m 0 -36 l
3 -6 l
9 -3 l
7 0 l
9 3 l
7 6 l
-32 36 m 0 -36 l
3 -6 l
6 -3 l
23 45 m 0 -45 l
3 45 m 0 -45 l
-48 45 m 13 0 l
22 0 m 13 0 l
-3 -45 m 13 0 l
25 45 m 0 -45 l
4 45 m 0 -45 l
0 35 m 6 6 l
10 4 l
6 0 l
10 -4 l
3 -6 l
0 -35 l
-13 45 m 6 -4 l
4 -6 l
0 -35 l
3 35 m 6 6 l
10 4 l
6 0 l
10 -4 l
3 -6 l
0 -35 l
-13 45 m 7 -4 l
3 -6 l
0 -35 l
-80 45 m 13 0 l
-13 -45 m 22 0 l
13 0 m 23 0 l
12 0 m 23 0 l
-79 45 m 0 -45 l
3 45 m 0 -45 l
0 35 m 7 6 l
9 4 l
7 0 l
10 -4 l
3 -6 l
0 -35 l
-13 45 m 6 -4 l
4 -6 l
0 -35 l
3 35 m 6 6 l
10 4 l
6 0 l
10 -4 l
3 -6 l
0 -35 l
-13 45 m 7 -4 l
3 -6 l
0 -35 l
-80 45 m 12 0 l
-12 -45 m 22 0 l
13 0 m 22 0 l
13 0 m 23 0 l
25 67 m 0 -67 l
4 67 m 0 -67 l
0 35 m 6 6 l
6 4 l
7 0 l
9 -4 l
7 -6 l
3 -10 l
0 -6 l
-3 -10 l
-7 -6 l
-9 -3 l
-7 0 l
-6 3 l
-6 6 l
19 36 m 6 -4 l
7 -6 l
3 -10 l
0 -6 l
-3 -10 l
-7 -6 l
-6 -3 l
-32 67 m 13 0 l
1 0 m 0 -67 l
3 67 m 0 -67 l
0 35 m 7 6 l
6 4 l
7 0 l
9 -4 l
7 -6 l
3 -10 l
0 -6 l
-3 -10 l
-7 -6 l
-9 -3 l
-7 0 l
-6 3 l
-7 6 l
20 36 m 6 -4 l
6 -6 l
4 -10 l
0 -6 l
-4 -10 l
-6 -6 l
-6 -3 l
-32 67 m 12 0 l
65 -42 m 38 0 l
0 7 l
-3 6 l
-3 3 l
-7 4 l
-9 0 l
-10 -4 l
-6 -6 l
-4 -10 l
0 -6 l
4 -10 l
6 -6 l
10 -3 l
6 0 l
10 3 l
6 6 l
-3 16 m 0 10 l
-3 6 l
-16 4 m -7 -4 l
-6 -6 l
-3 -10 l
0 -6 l
3 -10 l
6 -6 l
7 -3 l
-12 25 m 39 0 l
0 7 l
-3 6 l
-4 3 l
-6 4 l
-10 0 l
-9 -4 l
-7 -6 l
-3 -10 l
0 -6 l
3 -10 l
7 -6 l
9 -3 l
7 0 l
9 3 l
7 6 l
-3 16 m 0 10 l
-4 6 l
-16 4 m -6 -4 l
-6 -6 l
-4 -10 l
0 -6 l
4 -10 l
6 -6 l
6 -3 l
52 45 m 0 -45 l
3 45 m 0 -45 l
0 25 m 3 10 l
7 6 l
6 4 l
10 0 l
3 -4 l
0 -3 l
-3 -3 l
-4 3 l
4 3 l
-39 4 m 13 0 l
-13 -45 m 23 0 l
-8 45 m 0 -45 l
3 45 m 0 -45 l
0 25 m 3 10 l
6 6 l
7 4 l
9 0 l
4 -4 l
0 -3 l
-4 -3 l
-3 3 l
3 3 l
-38 4 m 13 0 l
-13 -45 m 22 0 l
118 45 m -10 -4 l
-7 -6 l
-3 -10 l
0 -6 l
3 -10 l
7 -6 l
10 -3 l
6 0 l
10 3 l
6 6 l
3 10 l
0 6 l
-3 10 l
-6 6 l
-10 4 l
-6 0 l
-7 -4 l
CS M
-6 -6 l
-4 -10 l
0 -6 l
4 -10 l
6 -6 l
7 -3 l
6 0 m 6 3 l
7 6 l
3 10 l
0 6 l
-3 10 l
-7 6 l
-6 4 l
-2 0 m -9 -4 l
-7 -6 l
-3 -10 l
0 -6 l
3 -10 l
7 -6 l
9 -3 l
7 0 l
9 3 l
7 6 l
3 10 l
0 6 l
-3 10 l
-7 6 l
-9 4 l
-7 0 l
-6 -4 l
-7 -6 l
-3 -10 l
0 -6 l
3 -10 l
7 -6 l
6 -3 l
7 0 m 6 3 l
7 6 l
3 10 l
0 6 l
-3 10 l
-7 6 l
-6 4 l
64 19 m -3 -3 l
3 -4 l
3 4 l
0 3 l
-3 3 l
-6 0 l
-7 -3 l
-3 -7 l
0 -57 l
10 67 m -4 -3 l
-3 -7 l
0 -57 l
-13 45 m 26 0 l
-26 -45 m 23 0 l
8 64 m -3 -3 l
3 -4 l
3 4 l
0 3 l
-3 3 l
-7 0 l
-6 -3 l
-3 -7 l
0 -57 l
9 67 m -3 -3 l
-3 -7 l
0 -57 l
-13 45 m 26 0 l
-26 -45 m 23 0 l
91 67 m 0 -67 l
3 67 m 39 -61 l
-39 55 m 39 -61 l
0 67 m 0 -67 l
-52 67 m 13 0 l
29 0 m 19 0 l
-61 -67 m 20 0 l
-5 67 m 0 -67 l
3 67 m 39 -61 l
-39 55 m 39 -61 l
0 67 m 0 -67 l
-52 67 m 13 0 l
29 0 m 19 0 l
-61 -67 m 19 0 l
81 45 m -10 -4 l
-6 -6 l
-4 -10 l
0 -6 l
4 -10 l
6 -6 l
10 -3 l
6 0 l
10 3 l
6 6 l
3 10 l
0 6 l
-3 10 l
-6 6 l
-10 4 l
-6 0 l
-7 -4 l
-6 -6 l
-3 -10 l
0 -6 l
3 -10 l
6 -6 l
7 -3 l
6 0 m 7 3 l
6 6 l
3 10 l
0 6 l
-3 10 l
-6 6 l
-7 4 l
-2 0 m -9 -4 l
-7 -6 l
-3 -10 l
0 -6 l
3 -10 l
7 -6 l
9 -3 l
7 0 l
10 3 l
6 6 l
3 10 l
0 6 l
-3 10 l
-6 6 l
-10 4 l
-7 0 l
-6 -4 l
-6 -6 l
-4 -10 l
0 -6 l
4 -10 l
6 -6 l
6 -3 l
7 0 m 6 3 l
7 6 l
3 10 l
0 6 l
-3 10 l
-7 6 l
-6 4 l
80 22 m 0 -67 l
3 67 m 0 -67 l
-3 35 m -6 6 l
-7 4 l
-6 0 l
-10 -4 l
-6 -6 l
-3 -10 l
0 -6 l
3 -10 l
6 -6 l
10 -3 l
6 0 l
7 3 l
6 6 l
-19 36 m -7 -4 l
-6 -6 l
-3 -10 l
0 -6 l
3 -10 l
6 -6 l
7 -3 l
10 67 m 12 0 l
-3 -67 m 13 0 l
-8 67 m 0 -67 l
3 67 m 0 -67 l
-3 35 m -6 6 l
-7 4 l
-6 0 l
-10 -4 l
-6 -6 l
-4 -10 l
0 -6 l
4 -10 l
6 -6 l
10 -3 l
6 0 l
7 3 l
6 6 l
-19 36 m -7 -4 l
-6 -6 l
-3 -10 l
0 -6 l
3 -10 l
6 -6 l
7 -3 l
9 67 m 13 0 l
-3 -67 m 13 0 l
22 25 m 39 0 l
0 7 l
-3 6 l
-4 3 l
-6 4 l
-10 0 l
-9 -4 l
-7 -6 l
-3 -10 l
0 -6 l
3 -10 l
7 -6 l
9 -3 l
7 0 l
9 3 l
7 6 l
-3 16 m 0 10 l
-4 6 l
-16 4 m -6 -4 l
-7 -6 l
-3 -10 l
0 -6 l
3 -10 l
7 -6 l
6 -3 l
-11 25 m 39 0 l
0 7 l
-4 6 l
-3 3 l
-6 4 l
-10 0 l
-10 -4 l
-6 -6 l
-3 -10 l
0 -6 l
3 -10 l
6 -6 l
10 -3 l
7 0 l
9 3 l
7 6 l
-4 16 m 0 10 l
-3 6 l
-16 4 m -6 -4 l
-7 -6 l
-3 -10 l
0 -6 l
3 -10 l
7 -6 l
6 -3 l
77 38 m 3 7 l
0 -13 l
-3 6 l
-3 3 l
-6 4 l
-13 0 l
-7 -4 l
-3 -3 l
0 -6 l
3 -3 l
7 -4 l
16 -6 l
6 -3 l
3 -4 l
-35 23 m 3 -3 l
7 -3 l
16 -7 l
6 -3 l
3 -3 l
0 -10 l
-3 -3 l
-6 -3 l
-13 0 l
-7 3 l
-3 3 l
-3 6 l
0 -12 l
3 6 l
34 32 m 3 7 l
0 -13 l
-3 6 l
-3 3 l
-7 4 l
-13 0 l
-6 -4 l
-3 -3 l
0 -6 l
3 -3 l
6 -4 l
17 -6 l
6 -3 l
3 -4 l
-35 23 m 3 -3 l
6 -3 l
17 -7 l
6 -3 l
3 -3 l
0 -10 l
-3 -3 l
-6 -3 l
-13 0 l
-7 3 l
-3 3 l
-3 6 l
0 -12 l
3 6 l
CS [] 0 setdash M
CS [] 0 setdash M
185 666 M -67 16 m 67 0 l
CS M
-67 3 m 67 0 l
-67 -13 m 0 39 l
3 9 l
3 3 l
7 4 l
6 0 l
6 -4 l
4 -3 l
3 -9 l
0 -26 l
-32 26 m 3 6 l
3 3 l
7 3 l
6 0 l
6 -3 l
4 -3 l
3 -6 l
35 -39 m 0 23 l
-35 6 m 3 6 l
3 4 l
23 9 l
3 3 l
0 4 l
-3 3 l
-26 -23 m 6 4 l
23 6 l
3 3 l
0 7 l
-6 3 l
-4 0 l
-57 -44 m 67 0 l
-67 4 m 67 0 l
-67 -13 m 0 38 l
3 10 l
3 3 l
7 3 l
6 0 l
6 -3 l
4 -3 l
3 -10 l
0 -25 l
-32 25 m 3 7 l
3 3 l
7 3 l
6 0 l
6 -3 l
4 -3 l
3 -7 l
35 -38 m 0 22 l
-35 7 m 3 6 l
3 3 l
23 10 l
3 3 l
0 3 l
-3 4 l
-26 -23 m 6 3 l
23 7 l
3 3 l
0 6 l
-6 4 l
-4 0 l
-16 22 m 0 39 l
-6 0 l
-6 -4 l
-4 -3 l
-3 -6 l
0 -10 l
3 -9 l
7 -7 l
9 -3 l
7 0 l
9 3 l
7 7 l
3 9 l
0 7 l
-3 9 l
-7 7 l
-16 -4 m -9 0 l
-7 -3 l
-3 -16 m 3 -6 l
7 -7 l
9 -3 l
7 0 l
9 3 l
7 7 l
3 6 l
-26 -11 m 0 38 l
-6 0 l
-6 -3 l
-4 -3 l
-3 -6 l
0 -10 l
3 -10 l
7 -6 l
9 -3 l
7 0 l
9 3 l
7 6 l
3 10 l
0 6 l
-3 10 l
-7 6 l
-16 -3 m -9 0 l
-7 -3 l
-3 -16 m 3 -6 l
7 -7 l
9 -3 l
7 0 l
9 3 l
7 7 l
3 6 l
-67 51 m 67 0 l
-67 4 m 67 0 l
-67 -13 m 0 13 l
67 -13 m 0 22 l
-67 -8 m 67 0 l
-67 3 m 67 0 l
-67 -13 m 0 13 l
67 -13 m 0 23 l
-38 26 m 3 0 l
0 -4 l
-3 0 l
-4 4 l
-3 6 l
0 13 l
3 6 l
4 4 l
6 3 l
22 0 l
7 3 l
3 3 l
-38 -9 m 28 0 l
7 3 l
3 6 l
0 3 l
-32 -12 m 3 -4 l
3 -19 l
4 -10 l
6 -3 l
6 0 l
7 3 l
3 10 l
0 10 l
-3 6 l
-7 7 l
-16 -23 m 4 -6 l
6 -4 l
6 0 l
7 4 l
3 6 l
-38 -2 m 3 0 l
0 -3 l
-3 0 l
-4 3 l
-3 7 l
0 13 l
3 6 l
4 3 l
6 4 l
22 0 l
7 3 l
3 3 l
-38 -10 m 28 0 l
7 4 l
3 6 l
0 3 l
-32 -13 m 3 -3 l
3 -19 l
4 -10 l
6 -3 l
6 0 l
7 3 l
3 10 l
0 9 l
-3 7 l
-7 6 l
-16 -22 m 4 -7 l
6 -3 l
6 0 l
7 3 l
3 7 l
-67 61 m 54 0 l
10 3 l
3 6 l
0 7 l
-3 6 l
-7 3 l
-57 -22 m 54 0 l
10 3 l
3 3 l
-45 -19 m 0 26 l
-22 -11 m 54 0 l
10 3 l
3 6 l
0 7 l
-3 6 l
-7 3 l
-57 -22 m 54 0 l
10 3 l
3 3 l
-45 -19 m 0 26 l
-22 35 m 3 -3 l
3 3 l
-3 3 l
-3 -3 l
22 0 m 45 0 l
-45 3 m 45 0 l
-45 -13 m 0 13 l
45 -13 m 0 23 l
-67 -8 m 3 -3 l
3 3 l
-3 3 l
-3 -3 l
22 0 m 45 0 l
-45 3 m 45 0 l
-45 -13 m 0 13 l
45 -13 m 0 23 l
-45 19 m 45 19 l
-45 -16 m 39 16 l
-39 19 m 45 -19 l
-45 -26 m 0 20 l
0 13 m 0 19 l
0 -40 m 45 19 l
-45 -16 m 39 16 l
-39 19 m 45 -19 l
-45 -26 m 0 20 l
0 12 m 0 20 l
19 19 m 0 38 l
-6 0 l
-6 -3 l
-4 -3 l
-3 -6 l
0 -10 l
3 -10 l
7 -6 l
9 -3 l
7 0 l
9 3 l
7 6 l
3 10 l
0 6 l
-3 10 l
-7 6 l
-16 -3 m -9 0 l
-7 -3 l
-3 -16 m 3 -6 l
7 -7 l
9 -3 l
7 0 l
9 3 l
7 7 l
3 6 l
-26 -11 m 0 38 l
-6 0 l
-6 -3 l
-4 -3 l
-3 -7 l
0 -9 l
3 -10 l
7 -6 l
9 -4 l
7 0 l
9 4 l
7 6 l
3 10 l
0 6 l
-3 10 l
-7 6 l
-16 -3 m -9 0 l
-7 -3 l
-3 -16 m 3 -7 l
7 -6 l
9 -3 l
7 0 l
9 3 l
7 6 l
3 7 l
-67 110 m 67 0 l
-67 4 m 67 0 l
-67 -13 m 0 38 l
3 10 l
3 3 l
7 3 l
9 0 l
7 -3 l
3 -3 l
3 -10 l
0 -25 l
-35 25 m 3 7 l
3 3 l
7 3 l
9 0 l
7 -3 l
3 -3 l
3 -7 l
32 -38 m 0 22 l
-67 -8 m 67 0 l
-67 3 m 67 0 l
-67 -12 m 0 38 l
3 10 l
CS M
3 3 l
7 3 l
9 0 l
7 -3 l
3 -3 l
3 -10 l
0 -26 l
-35 26 m 3 7 l
3 3 l
7 3 l
9 0 l
7 -3 l
3 -3 l
3 -7 l
32 -38 m 0 22 l
-26 58 m 0 38 l
-6 0 l
-6 -3 l
-4 -3 l
-3 -6 l
0 -10 l
3 -10 l
7 -6 l
9 -3 l
7 0 l
9 3 l
7 6 l
3 10 l
0 6 l
-3 10 l
-7 6 l
-16 -3 m -9 0 l
-7 -3 l
-3 -16 m 3 -6 l
7 -7 l
9 -3 l
7 0 l
9 3 l
7 7 l
3 6 l
-26 -11 m 0 38 l
-6 0 l
-6 -3 l
-4 -3 l
-3 -7 l
0 -9 l
3 -10 l
7 -6 l
9 -4 l
7 0 l
9 4 l
7 6 l
3 10 l
0 6 l
-3 10 l
-7 6 l
-16 -3 m -9 0 l
-7 -3 l
-3 -16 m 3 -7 l
7 -6 l
9 -3 l
7 0 l
9 3 l
7 6 l
3 7 l
-45 51 m 45 0 l
-45 3 m 45 0 l
-26 0 m -9 4 l
-7 6 l
-3 6 l
0 10 l
3 3 l
4 0 l
3 -3 l
-3 -3 l
-4 3 l
-3 -39 m 0 13 l
45 -13 m 0 23 l
-45 -8 m 45 0 l
-45 3 m 45 0 l
-26 0 m -9 3 l
-7 7 l
-3 6 l
0 10 l
3 3 l
4 0 l
3 -3 l
-3 -3 l
-4 3 l
-3 -39 m 0 13 l
45 -13 m 0 23 l
-64 61 m 3 -3 l
3 3 l
-3 3 l
-3 0 l
-3 -3 l
0 -7 l
3 -6 l
6 -3 l
58 0 l
-67 9 m 3 -3 l
6 -3 l
58 0 l
-45 -13 m 0 26 l
45 -26 m 0 23 l
-64 8 m 3 -4 l
3 4 l
-3 3 l
-3 0 l
-3 -3 l
0 -7 l
3 -6 l
6 -4 l
58 0 l
-67 10 m 3 -3 l
6 -3 l
58 0 l
-45 -13 m 0 26 l
45 -26 m 0 22 l
-45 45 m 3 -9 l
7 -7 l
9 -3 l
7 0 l
9 3 l
7 7 l
3 9 l
0 7 l
-3 9 l
-7 7 l
-9 3 l
-7 0 l
-9 -3 l
-7 -7 l
-3 -9 l
0 -7 l
3 -6 l
7 -7 l
9 -3 l
7 0 l
9 3 l
7 7 l
3 6 l
0 7 m -3 6 l
-7 7 l
-9 3 l
-7 0 l
-9 -3 l
-7 -7 l
-3 -6 l
0 -2 m 3 -10 l
7 -6 l
9 -3 l
7 0 l
9 3 l
7 6 l
3 10 l
0 6 l
-3 10 l
-7 7 l
-9 3 l
-7 0 l
-9 -3 l
-7 -7 l
-3 -10 l
0 -6 l
3 -6 l
7 -7 l
9 -3 l
7 0 l
9 3 l
7 7 l
3 6 l
0 6 m -3 7 l
-7 6 l
-9 4 l
-7 0 l
-9 -4 l
-7 -6 l
-3 -7 l
0 49 m 45 0 l
-45 3 m 45 0 l
-26 0 m -9 3 l
-7 6 l
-3 7 l
0 10 l
3 3 l
4 0 l
3 -3 l
-3 -4 l
-4 4 l
-3 -39 m 0 13 l
45 -13 m 0 22 l
-45 -8 m 45 0 l
-45 4 m 45 0 l
-26 0 m -9 3 l
-7 6 l
-3 7 l
0 9 l
3 4 l
4 0 l
3 -4 l
-3 -3 l
-4 3 l
-3 -38 m 0 13 l
45 -13 m 0 22 l
-45 45 m 45 0 l
-45 3 m 45 0 l
-35 0 m -7 7 l
-3 9 l
0 7 l
3 10 l
7 3 l
35 0 l
-45 -13 m 3 6 l
7 4 l
35 0 l
-35 3 m -7 6 l
-3 10 l
0 6 l
3 10 l
7 3 l
35 0 l
-45 -13 m 3 7 l
7 3 l
35 0 l
-45 -80 m 0 12 l
45 -12 m 0 22 l
0 13 m 0 22 l
0 13 m 0 23 l
-45 -79 m 45 0 l
-45 3 m 45 0 l
-35 0 m -7 7 l
-3 9 l
0 7 l
3 9 l
7 4 l
35 0 l
-45 -13 m 3 6 l
7 3 l
35 0 l
-35 4 m -7 6 l
-3 10 l
0 6 l
3 10 l
7 3 l
35 0 l
-45 -13 m 3 6 l
7 4 l
35 0 l
-45 -81 m 0 13 l
45 -13 m 0 23 l
0 13 m 0 22 l
0 13 m 0 22 l
-38 26 m 3 0 l
0 -3 l
-3 0 l
-4 3 l
-3 7 l
0 12 l
3 7 l
4 3 l
6 3 l
22 0 l
7 3 l
3 4 l
-38 -10 m 28 0 l
7 3 l
3 7 l
0 3 l
-32 -13 m 3 -3 l
3 -19 l
4 -10 l
6 -3 l
6 0 l
7 3 l
3 10 l
0 9 l
-3 7 l
-7 6 l
-16 -22 m 4 -7 l
6 -3 l
6 0 l
7 3 l
3 7 l
-38 -2 m 3 0 l
0 -3 l
-3 0 l
-4 3 l
-3 6 l
0 13 l
3 7 l
4 3 l
6 3 l
22 0 l
7 3 l
3 3 l
-38 -9 m 28 0 l
7 3 l
3 6 l
0 4 l
CS M
-32 -13 m 3 -3 l
3 -20 l
4 -9 l
6 -3 l
6 0 l
7 3 l
3 9 l
0 10 l
-3 6 l
-7 7 l
-16 -23 m 4 -6 l
6 -3 l
6 0 l
7 3 l
3 6 l
-45 61 m 45 0 l
-45 4 m 45 0 l
-35 0 m -7 6 l
-3 10 l
0 6 l
3 10 l
7 3 l
35 0 l
-45 -13 m 3 6 l
7 4 l
35 0 l
-45 -45 m 0 13 l
45 -13 m 0 22 l
0 13 m 0 22 l
-45 -43 m 45 0 l
-45 3 m 45 0 l
-35 0 m -7 7 l
-3 9 l
0 7 l
3 9 l
7 4 l
35 0 l
-45 -13 m 3 6 l
7 3 l
35 0 l
-45 -44 m 0 12 l
45 -12 m 0 22 l
0 13 m 0 22 l
-35 58 m 3 -3 l
3 3 l
-3 3 l
-3 0 l
-7 -6 l
-3 -7 l
0 -9 l
3 -10 l
7 -6 l
9 -3 l
7 0 l
9 3 l
7 6 l
3 10 l
0 6 l
-3 10 l
-7 6 l
-35 -22 m 3 -7 l
7 -6 l
9 -3 l
7 0 l
9 3 l
7 6 l
3 7 l
-35 24 m 3 -3 l
3 3 l
-3 3 l
-3 0 l
-7 -6 l
-3 -7 l
0 -9 l
3 -10 l
7 -6 l
9 -4 l
7 0 l
9 4 l
7 6 l
3 10 l
0 6 l
-3 10 l
-7 6 l
-35 -22 m 3 -7 l
7 -6 l
9 -3 l
7 0 l
9 3 l
7 6 l
3 7 l
-26 48 m 0 38 l
-6 0 l
-6 -3 l
-4 -3 l
-3 -7 l
0 -9 l
3 -10 l
7 -6 l
9 -3 l
7 0 l
9 3 l
7 6 l
3 10 l
0 6 l
-3 10 l
-7 6 l
-16 -3 m -9 0 l
-7 -3 l
-3 -16 m 3 -7 l
7 -6 l
9 -3 l
7 0 l
9 3 l
7 6 l
3 7 l
-26 -11 m 0 38 l
-6 0 l
-6 -3 l
-4 -3 l
-3 -7 l
0 -9 l
3 -10 l
7 -6 l
9 -4 l
7 0 l
9 4 l
7 6 l
3 10 l
0 6 l
-3 10 l
-7 6 l
-16 -3 m -9 0 l
-7 -3 l
-3 -16 m 3 -7 l
7 -6 l
9 -3 l
7 0 l
9 3 l
7 6 l
3 7 l
CS [] 0 setdash M
CS M 3 100 mul 72 div dup setlinewidth
/P [ /currentpoint cvx 0 5 -1 roll .05 add dup -2 div 0 exch /rmoveto cvx /rlineto cvx /stroke cvx /moveto cvx ] cvx def
CS [] 0 setdash M
545 1939 M 107 56 l
215 10 l
429 -58 l
858 -301 l
545 1939 M 13 -13 m -26 26 l
26 0 m -26 -26 l
0 26 m 120 43 m 13 -13 m -26 27 l
26 -1 m -26 -26 l
0 26 m 228 -3 m 13 -13 m -27 27 l
27 -1 m -27 -26 l
0 26 m 443 -71 m 13 -13 m -27 27 l
27 0 m -27 -27 l
0 27 m 872 -315 m 13 -14 m -26 27 l
26 0 m -26 -26 l
-1 26 m stroke
grestore
showpage
end
