\relax 
\bibstyle{plain}
\citation{aetal98}
\citation{b00}
\citation{bcsst98a}
\citation{bcsst98b}
\citation{bhs99}
\citation{bhrss99}
\citation{bs98b}
\citation{bss00}
\citation{cetal98}
\citation{dbs01}
\citation{dbssu02}
\citation{Duez:2002bn}
\citation{Marronetti:2003gk}
\citation{Yo:2001cn}
\citation{Yo:2002bm}
\citation{Marronetti:2003bb}
\citation{dsy04}
\citation{dlss04}
\citation{Yo:2003aa1}
\citation{dlss05a}
\citation{dlsss06a}
\citation{sdlss06}
\citation{dlsss06b}
\citation{els06}
\citation{lss07}
\citation{Faber:2005}
\citation{lset08}
\citation{grrmhd}
\citation{sls08}
\citation{eflskb08}
\citation{fbest07}
\citation{eflsb07}
\citation{elsb09}
\citation{ninja09}
\citation{les09}
\citation{farris09}
\citation{els10}
\citation{bsbook10}
\citation{fls11}
\citation{pels11}
\citation{ples11}
\citation{epls2012}
\citation{elps2012}
\citation{Ajith}
\citation{Paschalidis:2012ff}
\citation{fgpes12}
\citation{Etienne:2012te}
\citation{Paschalidis:2013jsaxo}
\citation{PS13}
\citation{Hinder:2013oqa}
\citation{gpesp14}
\citation{Ruiz:2014zta}
\citation{Etienne:2014tia}
\citation{Aasi:2014tra}
\citation{gprsep14}
\citation{East:2015vix}
\citation{Paschalidis:2015mla}
\citation{Paschalidis:2014}
\bibdata{references}
\bibcite{Aasi:2014tra}{1}
\bibcite{aetal98}{2}
\bibcite{Ajith}{3}
\bibcite{b00}{4}
\bibcite{bcsst98b}{5}
\bibcite{bcsst98a}{6}
\bibcite{bhrss99}{7}
\bibcite{bhs99}{8}
\bibcite{bs98b}{9}
\bibcite{bsbook10}{10}
\bibcite{bss00}{11}
\bibcite{ninja09}{12}
\bibcite{cetal98}{13}
\bibcite{dbs01}{14}
\bibcite{dbssu02}{15}
\bibcite{dlsss06a}{16}
\bibcite{dlsss06b}{17}
\bibcite{dlss04}{18}
\bibcite{dlss05a}{19}
\bibcite{Duez:2002bn}{20}
\bibcite{dsy04}{21}
\bibcite{East:2015vix}{22}
\bibcite{eflsb07}{23}
\bibcite{eflskb08}{24}
\bibcite{els06}{25}
\bibcite{els10}{26}
\bibcite{elsb09}{27}
\bibcite{Etienne:2014tia}{28}
\bibcite{elps2012}{29}
\bibcite{epls2012}{30}
\bibcite{Etienne:2012te}{31}
\bibcite{fbest07}{32}
\bibcite{Faber:2005}{33}
\bibcite{grrmhd}{34}
\bibcite{farris09}{35}
\bibcite{fls11}{36}
\bibcite{fgpes12}{37}
\bibcite{gpesp14}{38}
\bibcite{gprsep14}{39}
\bibcite{Hinder:2013oqa}{40}
\bibcite{les09}{41}
\bibcite{lset08}{42}
\bibcite{lss07}{43}
\bibcite{Marronetti:2003bb}{44}
\bibcite{Marronetti:2003gk}{45}
\bibcite{pels11}{46}
\bibcite{PS13}{47}
\bibcite{Paschalidis:2015mla}{48}
\bibcite{Paschalidis:2012ff}{49}
\bibcite{Paschalidis:2013jsaxo}{50}
\bibcite{ples11}{51}
\bibcite{Paschalidis:2014}{52}
\bibcite{Ruiz:2014zta}{53}
\bibcite{sdlss06}{54}
\bibcite{sls08}{55}
\bibcite{Yo:2001cn}{56}
\bibcite{Yo:2002bm}{57}
\bibcite{Yo:2003aa1}{58}
