\relax 
\bibstyle{plain}
\citation{Ruiz:2017due}
\citation{Sun:2017voo}
\citation{Tsokaros:2017ueb}
\citation{Ruiz:2017inq}
\citation{shapiro:2017cny}
\citation{Ruiz:2016rai}
\citation{Khan017}
\citation{Ruiz:2018Oct}
\citation{Paschalidis:2018tsa}
\citation{Tsokaros:2018dqs}
\citation{Tsokaros:2018zlf}
\bibdata{references}
\bibcite{Khan017}{1}
\bibcite{Paschalidis:2018tsa}{2}
\bibcite{Ruiz:2016rai}{3}
\bibcite{Ruiz:2017inq}{4}
\bibcite{Ruiz:2017due}{5}
\bibcite{Ruiz:2018Oct}{6}
\bibcite{shapiro:2017cny}{7}
\bibcite{Sun:2017voo}{8}
\bibcite{Tsokaros:2017ueb}{9}
\bibcite{Tsokaros:2018dqs}{10}
\bibcite{Tsokaros:2018zlf}{11}
