%!PS-Adobe-3.0
%%BoundingBox: 0 0 612 792
%%LanguageLevel: 2
%%Creator: Grace-5.1.25
%%CreationDate: Wed Jan 10 13:30:56 2018
%%DocumentData: Clean8Bit
%%Orientation: Landscape
%%Pages: 1
%%PageOrder: Ascend
%%Title: /home/ruizm/scale.agr
%%For: ruizm
%%DocumentNeededResources: (atend)
%%EndComments
%%BeginProlog
/PAGE_OFFSET_X 0 def
/PAGE_OFFSET_Y 0 def
/m {moveto} def
/l {lineto} def
/s {stroke} def
/n {newpath} def
/c {closepath} def
/RL {rlineto} def
/SLW {setlinewidth} def
/GS {gsave} def
/GR {grestore} def
/SC {setcolor} def
/SGRY {setgray} def
/SRGB {setrgbcolor} def
/SD {setdash} def
/SLC {setlinecap} def
/SLJ {setlinejoin} def
/SCS {setcolorspace} def
/FFSF {findfont setfont} def
/CC {concat} def
/PXL {n m 0 0 RL s} def
/Color0 {1.0000 1.0000 1.0000} def
/Color1 {0.0000 0.0000 0.0000} def
/Color2 {1.0000 0.0000 0.0000} def
/Color3 {0.0000 1.0000 0.0000} def
/Color4 {0.0000 0.0000 1.0000} def
/Color5 {1.0000 1.0000 0.0000} def
/Color6 {0.7373 0.5608 0.5608} def
/Color7 {0.8627 0.8627 0.8627} def
/Color8 {0.5804 0.0000 0.8275} def
/Color9 {0.0000 1.0000 1.0000} def
/Color10 {1.0000 0.0000 1.0000} def
/Color11 {1.0000 0.6471 0.0000} def
/Color12 {0.4471 0.1294 0.7373} def
/Color13 {0.4039 0.0275 0.2824} def
/Color14 {0.2510 0.8784 0.8157} def
/Color15 {0.0000 0.5451 0.0000} def
/Color16 {0.7529 0.7529 0.7529} def
/Color17 {0.5059 0.5059 0.5059} def
/Color18 {0.2588 0.2588 0.2588} def
/PTRN {
 /pat_bits exch def 
 <<
  /PaintType 2
  /PatternType 1 /TilingType 1
  /BBox[0 0 16 16]
  /XStep 16 /YStep 16
  /PaintProc {
   pop
   16 16 true [-1 0 0 -1 16 16] pat_bits imagemask
  }
 >>
 [0.0016 0 0 0.0016 0 0]
 makepattern
} def
/Pattern0 {<0000000000000000000000000000000000000000000000000000000000000000> PTRN} bind def
/Pattern1 {<ffffffffffffffffffffffffffffffffffffffffffffffffffffffffffffffff> PTRN} bind def
/Pattern2 {<eeeeffffbbbbffffeeeeffffbbbbffffeeeeffffbbbbffffeeeeffffbbbbffff> PTRN} bind def
/Pattern3 {<eeeebbbbeeeebbbbeeeebbbbeeeebbbbeeeebbbbeeeebbbbeeeebbbbeeeebbbb> PTRN} bind def
/Pattern4 {<5555aaaa5555aaaa5555aaaa5555aaaa5555aaaa5555aaaa5555aaaa5555aaaa> PTRN} bind def
/Pattern5 {<1111444411114444111144441111444411114444111144441111444411114444> PTRN} bind def
/Pattern6 {<1111000044440000111100004444000011110000444400001111000044440000> PTRN} bind def
/Pattern7 {<1010000000000000010100000000000010100000000000000101000000000000> PTRN} bind def
/Pattern8 {<0000000000000000000000000000000000000000000000000000000000000000> PTRN} bind def
/Pattern9 {<1e1e0f0f8787c3c3e1e1f0f078783c3c1e1e0f0f8787c3c3e1e1f0f078783c3c> PTRN} bind def
/Pattern10 {<7878f0f0e1e1c3c387870f0f1e1e3c3c7878f0f0e1e1c3c387870f0f1e1e3c3c> PTRN} bind def
/Pattern11 {<3333333333333333333333333333333333333333333333333333333333333333> PTRN} bind def
/Pattern12 {<ffffffff00000000ffffffff00000000ffffffff00000000ffffffff00000000> PTRN} bind def
/Pattern13 {<8181424224241818181824244242818181814242242418181818242442428181> PTRN} bind def
/Pattern14 {<8080404020201010080804040202010180804040202010100808040402020101> PTRN} bind def
/Pattern15 {<0101020204040808101020204040808001010202040408081010202040408080> PTRN} bind def
/Pattern16 {<2222222222222222222222222222222222222222222222222222222222222222> PTRN} bind def
/Pattern17 {<0000ffff000000000000ffff000000000000ffff000000000000ffff00000000> PTRN} bind def
/Pattern18 {<2222ffff222222222222ffff222222222222ffff222222222222ffff22222222> PTRN} bind def
/Pattern19 {<ffffffff33333333ffffffff33333333ffffffff33333333ffffffff33333333> PTRN} bind def
/Pattern20 {<0f0f0f0f0f0f0f0ff0f0f0f0f0f0f0f00f0f0f0f0f0f0f0ff0f0f0f0f0f0f0f0> PTRN} bind def
/Pattern21 {<ff00ff00ff00ff00ff00ff00ff00ff0000ff00ff00ff00ff00ff00ff00ff00ff> PTRN} bind def
/Pattern22 {<8001800180018001800180018001ffffffff8001800180018001800180018001> PTRN} bind def
/Pattern23 {<c003c003c003c003c003c003ffffffffffffffffc003c003c003c003c003c003> PTRN} bind def
/Pattern24 {<040404040404ffff404040404040ffff040404040404ffff404040404040ffff> PTRN} bind def
/Pattern25 {<180018001800180018001800ffffffff001800180018001800180018ffffffff> PTRN} bind def
/Pattern26 {<1111b8b87c7c3a3a1111a3a3c7c78b8b1111b8b87c7c3a3a1111a3a3c7c78b8b> PTRN} bind def
/Pattern27 {<101010102828c7c70101010182827c7c101010102828c7c70101010182827c7c> PTRN} bind def
/Pattern28 {<1c1c121211112121c1c12121111112121c1c121211112121c1c1212111111212> PTRN} bind def
/Pattern29 {<3e3e414180808080e3e31414080808083e3e414180808080e3e3141408080808> PTRN} bind def
/Pattern30 {<4848888884848383848488884848383848488888848483838484888848483838> PTRN} bind def
/Pattern31 {<03030404080808080c0c12122121c0c003030404080808080c0c12122121c0c0> PTRN} bind def
/ellipsedict 8 dict def
ellipsedict /mtrx matrix put
/EARC {
 ellipsedict begin
  /endangle exch def
  /startangle exch def
  /yrad exch def
  /xrad exch def
  /y exch def
  /x exch def
  /savematrix mtrx currentmatrix def
  x y translate
  xrad yrad scale
  0 0 1 startangle endangle arc
  savematrix setmatrix
 end
} def
/TL {
  /kcomp exch def
  /linewidth exch def
  /offset exch def
  GS
  0 offset rmoveto
  linewidth SLW
  dup stringwidth exch kcomp add exch RL s
  GR
} def
/KINIT
{
 /kvector exch def
 /kid 0 def
} def
/KPROC
{
 pop pop
 kvector kid get
 0 rmoveto
 /kid 1 kid add def
} def
/DefEncoding [
 /.notdef
 /.notdef
 /.notdef
 /.notdef
 /.notdef
 /.notdef
 /.notdef
 /.notdef
 /.notdef
 /.notdef
 /.notdef
 /.notdef
 /.notdef
 /.notdef
 /.notdef
 /.notdef
 /.notdef
 /.notdef
 /.notdef
 /.notdef
 /.notdef
 /.notdef
 /.notdef
 /.notdef
 /.notdef
 /.notdef
 /.notdef
 /.notdef
 /.notdef
 /.notdef
 /.notdef
 /.notdef
 /space
 /exclam
 /quotedbl
 /numbersign
 /dollar
 /percent
 /ampersand
 /quoteright
 /parenleft
 /parenright
 /asterisk
 /plus
 /comma
 /hyphen
 /period
 /slash
 /zero
 /one
 /two
 /three
 /four
 /five
 /six
 /seven
 /eight
 /nine
 /colon
 /semicolon
 /less
 /equal
 /greater
 /question
 /at
 /A
 /B
 /C
 /D
 /E
 /F
 /G
 /H
 /I
 /J
 /K
 /L
 /M
 /N
 /O
 /P
 /Q
 /R
 /S
 /T
 /U
 /V
 /W
 /X
 /Y
 /Z
 /bracketleft
 /backslash
 /bracketright
 /asciicircum
 /underscore
 /grave
 /a
 /b
 /c
 /d
 /e
 /f
 /g
 /h
 /i
 /j
 /k
 /l
 /m
 /n
 /o
 /p
 /q
 /r
 /s
 /t
 /u
 /v
 /w
 /x
 /y
 /z
 /braceleft
 /bar
 /braceright
 /asciitilde
 /.notdef
 /.notdef
 /.notdef
 /.notdef
 /.notdef
 /.notdef
 /.notdef
 /.notdef
 /.notdef
 /.notdef
 /.notdef
 /.notdef
 /.notdef
 /.notdef
 /.notdef
 /.notdef
 /.notdef
 /.notdef
 /.notdef
 /.notdef
 /.notdef
 /.notdef
 /.notdef
 /.notdef
 /.notdef
 /.notdef
 /.notdef
 /.notdef
 /.notdef
 /.notdef
 /.notdef
 /.notdef
 /.notdef
 /space
 /exclamdown
 /cent
 /sterling
 /currency
 /yen
 /brokenbar
 /section
 /dieresis
 /copyright
 /ordfeminine
 /guillemotleft
 /logicalnot
 /hyphen
 /registered
 /macron
 /degree
 /plusminus
 /twosuperior
 /threesuperior
 /acute
 /mu
 /paragraph
 /periodcentered
 /cedilla
 /onesuperior
 /ordmasculine
 /guillemotright
 /onequarter
 /onehalf
 /threequarters
 /questiondown
 /Agrave
 /Aacute
 /Acircumflex
 /Atilde
 /Adieresis
 /Aring
 /AE
 /Ccedilla
 /Egrave
 /Eacute
 /Ecircumflex
 /Edieresis
 /Igrave
 /Iacute
 /Icircumflex
 /Idieresis
 /Eth
 /Ntilde
 /Ograve
 /Oacute
 /Ocircumflex
 /Otilde
 /Odieresis
 /multiply
 /Oslash
 /Ugrave
 /Uacute
 /Ucircumflex
 /Udieresis
 /Yacute
 /Thorn
 /germandbls
 /agrave
 /aacute
 /acircumflex
 /atilde
 /adieresis
 /aring
 /ae
 /ccedilla
 /egrave
 /eacute
 /ecircumflex
 /edieresis
 /igrave
 /iacute
 /icircumflex
 /idieresis
 /eth
 /ntilde
 /ograve
 /oacute
 /ocircumflex
 /otilde
 /odieresis
 /divide
 /oslash
 /ugrave
 /uacute
 /ucircumflex
 /udieresis
 /yacute
 /thorn
 /ydieresis
] def
%%EndProlog
%%BeginSetup
%%EndSetup
%%Page: 1 1
PAGE_OFFSET_X PAGE_OFFSET_Y translate
612.00 612.00 scale
90 rotate
0.0 -1.0 translate
n
0.0000 0.0000 m
0.0000 1.0000 l
1.2941 1.0000 l
1.2941 0.0000 l
c
[/DeviceRGB] SCS
Color0 SC
fill
[/DeviceRGB] SCS
Color1 SC
[] 0 SD
0.0030 SLW
0 SLC
0 SLJ
n
0.1778 0.7333 m
0.2056 0.7573 l
0.2612 0.6955 l
0.3725 0.6710 l
0.5949 0.6335 l
s
[] 0 SD
0.0015 SLW
n
0.1678 0.7333 m
0.1878 0.7333 l
s
n
0.1778 0.7233 m
0.1778 0.7433 l
s
n
0.1707 0.7262 m
0.1849 0.7404 l
s
n
0.1707 0.7404 m
0.1849 0.7262 l
s
n
0.1956 0.7573 m
0.2156 0.7573 l
s
n
0.2056 0.7473 m
0.2056 0.7673 l
s
n
0.1985 0.7502 m
0.2127 0.7644 l
s
n
0.1985 0.7644 m
0.2127 0.7502 l
s
n
0.2512 0.6955 m
0.2712 0.6955 l
s
n
0.2612 0.6855 m
0.2612 0.7055 l
s
n
0.2542 0.6885 m
0.2683 0.7026 l
s
n
0.2542 0.7026 m
0.2683 0.6885 l
s
n
0.3625 0.6710 m
0.3825 0.6710 l
s
n
0.3725 0.6610 m
0.3725 0.6810 l
s
n
0.3654 0.6639 m
0.3795 0.6780 l
s
n
0.3654 0.6780 m
0.3795 0.6639 l
s
n
0.5849 0.6335 m
0.6049 0.6335 l
s
n
0.5949 0.6235 m
0.5949 0.6435 l
s
n
0.5878 0.6264 m
0.6020 0.6405 l
s
n
0.5878 0.6405 m
0.6020 0.6264 l
s
[] 0 SD
0.0030 SLW
n
0.1500 0.1500 m
0.6019 0.1500 l
s
n
0.1500 0.8500 m
0.6019 0.8500 l
s
[] 0 SD
0.0015 SLW
n
0.2195 0.1500 m
0.2195 0.1600 l
s
n
0.2195 0.8500 m
0.2195 0.8400 l
s
n
0.3586 0.1500 m
0.3586 0.1600 l
s
n
0.3586 0.8500 m
0.3586 0.8400 l
s
n
0.4976 0.1500 m
0.4976 0.1600 l
s
n
0.4976 0.8500 m
0.4976 0.8400 l
s
n
0.1500 0.1500 m
0.1500 0.1700 l
s
n
0.1500 0.8500 m
0.1500 0.8300 l
s
n
0.2890 0.1500 m
0.2890 0.1700 l
s
n
0.2890 0.8500 m
0.2890 0.8300 l
s
n
0.4281 0.1500 m
0.4281 0.1700 l
s
n
0.4281 0.8500 m
0.4281 0.8300 l
s
n
0.5671 0.1500 m
0.5671 0.1700 l
s
n
0.5671 0.8500 m
0.5671 0.8300 l
s
/Times-Roman findfont
dup length dict begin
 {1 index /FID ne {def} {pop pop} ifelse} forall
 /Encoding DefEncoding def
 currentdict
end
/Font41 exch definefont pop
/Font41 FFSF
0.1400 0.1114 m
GS
[0.0420 0.0000 0.0000 0.0420 0 0] CC
(0) show
GR
/Font41 FFSF
0.2684 0.1114 m
GS
[0.0420 0.0000 0.0000 0.0420 0 0] CC
(20) show
GR
/Font41 FFSF
0.4075 0.1114 m
GS
[0.0420 0.0000 0.0000 0.0420 0 0] CC
(40) show
GR
/Font41 FFSF
0.5465 0.1114 m
GS
[0.0420 0.0000 0.0000 0.0420 0 0] CC
(60) show
GR
/Font41 FFSF
0.2261 0.0724 m
GS
[0.0420 0.0000 0.0000 0.0420 0 0] CC
(Number of Nodes) show
GR
[] 0 SD
0.0030 SLW
n
0.1500 0.1500 m
0.1500 0.8500 l
s
n
0.6019 0.1500 m
0.6019 0.8500 l
s
[] 0 SD
0.0015 SLW
n
0.1500 0.2083 m
0.1600 0.2083 l
s
n
0.6019 0.2083 m
0.5919 0.2083 l
s
n
0.1500 0.3250 m
0.1600 0.3250 l
s
n
0.6019 0.3250 m
0.5919 0.3250 l
s
n
0.1500 0.4416 m
0.1600 0.4416 l
s
n
0.6019 0.4416 m
0.5919 0.4416 l
s
n
0.1500 0.5583 m
0.1600 0.5583 l
s
n
0.6019 0.5583 m
0.5919 0.5583 l
s
n
0.1500 0.6750 m
0.1600 0.6750 l
s
n
0.6019 0.6750 m
0.5919 0.6750 l
s
n
0.1500 0.7916 m
0.1600 0.7916 l
s
n
0.6019 0.7916 m
0.5919 0.7916 l
s
n
0.1500 0.1500 m
0.1700 0.1500 l
s
n
0.6019 0.1500 m
0.5819 0.1500 l
s
n
0.1500 0.2667 m
0.1700 0.2667 l
s
n
0.6019 0.2667 m
0.5819 0.2667 l
s
n
0.1500 0.3833 m
0.1700 0.3833 l
s
n
0.6019 0.3833 m
0.5819 0.3833 l
s
n
0.1500 0.5000 m
0.1700 0.5000 l
s
n
0.6019 0.5000 m
0.5819 0.5000 l
s
n
0.1500 0.6166 m
0.1700 0.6166 l
s
n
0.6019 0.6166 m
0.5819 0.6166 l
s
n
0.1500 0.7333 m
0.1700 0.7333 l
s
n
0.6019 0.7333 m
0.5819 0.7333 l
s
n
0.1500 0.8499 m
0.1700 0.8499 l
s
n
0.6019 0.8499 m
0.5819 0.8499 l
s
/Font41 FFSF
0.1200 0.1359 m
GS
[0.0420 0.0000 0.0000 0.0420 0 0] CC
(0) show
GR
/Font41 FFSF
0.0886 0.2525 m
GS
[0.0420 0.0000 0.0000 0.0420 0 0] CC
(0.2) show
GR
/Font41 FFSF
0.0886 0.3692 m
GS
[0.0420 0.0000 0.0000 0.0420 0 0] CC
(0.4) show
GR
/Font41 FFSF
0.0890 0.4859 m
GS
[0.0420 0.0000 0.0000 0.0420 0 0] CC
(0.6) show
GR
/Font41 FFSF
0.0898 0.6025 m
GS
[0.0420 0.0000 0.0000 0.0420 0 0] CC
(0.8) show
GR
/Font41 FFSF
0.1235 0.7192 m
GS
[0.0420 0.0000 0.0000 0.0420 0 0] CC
(1) show
GR
/Font41 FFSF
0.0886 0.8358 m
GS
[0.0420 0.0000 0.0000 0.0420 0 0] CC
(1.2) show
GR
/Font41 FFSF
0.0782 0.3178 m
GS
[0.0000 0.0420 -0.0420 0.0000 0 0] CC
(Relative Performance) show
GR
n
0.1500 0.1500 m
0.1500 0.8500 l
0.6019 0.8500 l
0.6019 0.1500 l
0.1500 0.1500 l
c
s
[] 0 SD
0.0030 SLW
n
0.7203 0.6140 m
0.7484 0.7157 l
0.8045 0.7873 l
0.9168 0.6741 l
1.1413 0.6242 l
s
[] 0 SD
0.0015 SLW
n
0.7103 0.6140 m
0.7303 0.6140 l
s
n
0.7203 0.6040 m
0.7203 0.6240 l
s
n
0.7132 0.6069 m
0.7274 0.6211 l
s
n
0.7132 0.6211 m
0.7274 0.6069 l
s
n
0.7384 0.7157 m
0.7584 0.7157 l
s
n
0.7484 0.7057 m
0.7484 0.7257 l
s
n
0.7413 0.7086 m
0.7555 0.7228 l
s
n
0.7413 0.7228 m
0.7555 0.7086 l
s
n
0.7945 0.7873 m
0.8145 0.7873 l
s
n
0.8045 0.7773 m
0.8045 0.7973 l
s
n
0.7974 0.7802 m
0.8116 0.7944 l
s
n
0.7974 0.7944 m
0.8116 0.7802 l
s
n
0.9068 0.6741 m
0.9268 0.6741 l
s
n
0.9168 0.6641 m
0.9168 0.6841 l
s
n
0.9097 0.6670 m
0.9238 0.6811 l
s
n
0.9097 0.6811 m
0.9238 0.6670 l
s
n
1.1313 0.6242 m
1.1513 0.6242 l
s
n
1.1413 0.6142 m
1.1413 0.6342 l
s
n
1.1342 0.6172 m
1.1484 0.6313 l
s
n
1.1342 0.6313 m
1.1484 0.6172 l
s
[] 0 SD
0.0030 SLW
n
0.7203 0.3056 m
0.7484 0.3790 l
0.8045 0.4844 l
0.9168 0.5928 l
1.1413 0.6103 l
s
[] 0 SD
0.0015 SLW
n
0.7103 0.3056 m
0.7303 0.3056 l
s
n
0.7203 0.2956 m
0.7203 0.3156 l
s
n
0.7132 0.2985 m
0.7274 0.3126 l
s
n
0.7132 0.3126 m
0.7274 0.2985 l
s
n
0.7384 0.3790 m
0.7584 0.3790 l
s
n
0.7484 0.3690 m
0.7484 0.3890 l
s
n
0.7413 0.3720 m
0.7555 0.3861 l
s
n
0.7413 0.3861 m
0.7555 0.3720 l
s
n
0.7945 0.4844 m
0.8145 0.4844 l
s
n
0.8045 0.4744 m
0.8045 0.4944 l
s
n
0.7974 0.4773 m
0.8116 0.4914 l
s
n
0.7974 0.4914 m
0.8116 0.4773 l
s
n
0.9068 0.5928 m
0.9268 0.5928 l
s
n
0.9168 0.5828 m
0.9168 0.6028 l
s
n
0.9097 0.5857 m
0.9238 0.5998 l
s
n
0.9097 0.5998 m
0.9238 0.5857 l
s
n
1.1313 0.6103 m
1.1513 0.6103 l
s
n
1.1413 0.6003 m
1.1413 0.6203 l
s
n
1.1342 0.6032 m
1.1484 0.6174 l
s
n
1.1342 0.6174 m
1.1484 0.6032 l
s
[] 0 SD
0.0030 SLW
n
0.6922 0.1500 m
1.1441 0.1500 l
s
n
0.6922 0.8500 m
1.1441 0.8500 l
s
[] 0 SD
0.0015 SLW
n
0.7484 0.1500 m
0.7484 0.1600 l
s
n
0.7484 0.8500 m
0.7484 0.8400 l
s
n
0.8606 0.1500 m
0.8606 0.1600 l
s
n
0.8606 0.8500 m
0.8606 0.8400 l
s
n
0.9729 0.1500 m
0.9729 0.1600 l
s
n
0.9729 0.8500 m
0.9729 0.8400 l
s
n
1.0852 0.1500 m
1.0852 0.1600 l
s
n
1.0852 0.8500 m
1.0852 0.8400 l
s
n
0.6922 0.1500 m
0.6922 0.1700 l
s
n
0.6922 0.8500 m
0.6922 0.8300 l
s
n
0.8045 0.1500 m
0.8045 0.1700 l
s
n
0.8045 0.8500 m
0.8045 0.8300 l
s
n
0.9168 0.1500 m
0.9168 0.1700 l
s
n
0.9168 0.8500 m
0.9168 0.8300 l
s
n
1.0290 0.1500 m
1.0290 0.1700 l
s
n
1.0290 0.8500 m
1.0290 0.8300 l
s
n
1.1413 0.1500 m
1.1413 0.1700 l
s
n
1.1413 0.8500 m
1.1413 0.8300 l
s
/Font41 FFSF
0.6822 0.1114 m
GS
[0.0420 0.0000 0.0000 0.0420 0 0] CC
(0) show
GR
/Font41 FFSF
0.7945 0.1114 m
GS
[0.0420 0.0000 0.0000 0.0420 0 0] CC
(4) show
GR
/Font41 FFSF
0.9074 0.1114 m
GS
[0.0420 0.0000 0.0000 0.0420 0 0] CC
(8) show
GR
/Font41 FFSF
1.0085 0.1114 m
GS
[0.0420 0.0000 0.0000 0.0420 0 0] CC
(12) show
GR
/Font41 FFSF
1.1209 0.1114 m
GS
[0.0420 0.0000 0.0000 0.0420 0 0] CC
(16) show
GR
/Font41 FFSF
0.7292 0.0724 m
GS
[0.0420 0.0000 0.0000 0.0420 0 0] CC
(MPI Process per Node) show
GR
[] 0 SD
0.0030 SLW
n
0.6922 0.1500 m
0.6922 0.8500 l
s
n
1.1441 0.1500 m
1.1441 0.8500 l
s
[] 0 SD
0.0015 SLW
n
0.6922 0.1811 m
0.7022 0.1811 l
s
n
1.1441 0.1811 m
1.1341 0.1811 l
s
n
0.6922 0.2122 m
0.7022 0.2122 l
s
n
1.1441 0.2122 m
1.1341 0.2122 l
s
n
0.6922 0.2433 m
0.7022 0.2433 l
s
n
1.1441 0.2433 m
1.1341 0.2433 l
s
n
0.6922 0.2744 m
0.7022 0.2744 l
s
n
1.1441 0.2744 m
1.1341 0.2744 l
s
n
0.6922 0.3367 m
0.7022 0.3367 l
s
n
1.1441 0.3367 m
1.1341 0.3367 l
s
n
0.6922 0.3678 m
0.7022 0.3678 l
s
n
1.1441 0.3678 m
1.1341 0.3678 l
s
n
0.6922 0.3989 m
0.7022 0.3989 l
s
n
1.1441 0.3989 m
1.1341 0.3989 l
s
n
0.6922 0.4300 m
0.7022 0.4300 l
s
n
1.1441 0.4300 m
1.1341 0.4300 l
s
n
0.6922 0.4922 m
0.7022 0.4922 l
s
n
1.1441 0.4922 m
1.1341 0.4922 l
s
n
0.6922 0.5233 m
0.7022 0.5233 l
s
n
1.1441 0.5233 m
1.1341 0.5233 l
s
n
0.6922 0.5544 m
0.7022 0.5544 l
s
n
1.1441 0.5544 m
1.1341 0.5544 l
s
n
0.6922 0.5856 m
0.7022 0.5856 l
s
n
1.1441 0.5856 m
1.1341 0.5856 l
s
n
0.6922 0.6478 m
0.7022 0.6478 l
s
n
1.1441 0.6478 m
1.1341 0.6478 l
s
n
0.6922 0.6789 m
0.7022 0.6789 l
s
n
1.1441 0.6789 m
1.1341 0.6789 l
s
n
0.6922 0.7100 m
0.7022 0.7100 l
s
n
1.1441 0.7100 m
1.1341 0.7100 l
s
n
0.6922 0.7411 m
0.7022 0.7411 l
s
n
1.1441 0.7411 m
1.1341 0.7411 l
s
n
0.6922 0.8033 m
0.7022 0.8033 l
s
n
1.1441 0.8033 m
1.1341 0.8033 l
s
n
0.6922 0.8344 m
0.7022 0.8344 l
s
n
1.1441 0.8344 m
1.1341 0.8344 l
s
n
0.6922 0.1500 m
0.7122 0.1500 l
s
n
1.1441 0.1500 m
1.1241 0.1500 l
s
n
0.6922 0.3056 m
0.7122 0.3056 l
s
n
1.1441 0.3056 m
1.1241 0.3056 l
s
n
0.6922 0.4611 m
0.7122 0.4611 l
s
n
1.1441 0.4611 m
1.1241 0.4611 l
s
n
0.6922 0.6167 m
0.7122 0.6167 l
s
n
1.1441 0.6167 m
1.1241 0.6167 l
s
n
0.6922 0.7722 m
0.7122 0.7722 l
s
n
1.1441 0.7722 m
1.1241 0.7722 l
s
/Font41 FFSF
0.6622 0.1359 m
GS
[0.0420 0.0000 0.0000 0.0420 0 0] CC
(0) show
GR
/Font41 FFSF
0.6658 0.2914 m
GS
[0.0420 0.0000 0.0000 0.0420 0 0] CC
(1) show
GR
/Font41 FFSF
0.6622 0.4468 m
GS
[0.0420 0.0000 0.0000 0.0420 0 0] CC
(2) show
GR
/Font41 FFSF
0.6642 0.6025 m
GS
[0.0420 0.0000 0.0000 0.0420 0 0] CC
(3) show
GR
/Font41 FFSF
0.6622 0.7579 m
GS
[0.0420 0.0000 0.0000 0.0420 0 0] CC
(4) show
GR
/Font41 FFSF
0.6519 0.3178 m
GS
[0.0000 0.0420 -0.0420 0.0000 0 0] CC
(Relative Performance) show
GR
n
0.6922 0.1500 m
0.6922 0.8500 l
1.1441 0.8500 l
1.1441 0.1500 l
0.6922 0.1500 l
c
s
showpage
%%PageTrailer
%%Trailer
%%DocumentNeededResources: font Times-Roman
%%EOF
